Start of saveset, written by TITO v16.  Tape #1, 1987-01-03 20:19
System: X32-P035/B.  Tape: 6250 bpi, 9 tracks.
   (NDT)          ACCESS.MSG    1986-08-12 04:26   [3,211135]
   (NDT)          RELOK .SAI    1977-06-31 20:53   [3,211135]
   (NDT)          AI    .ASC    1977-07-08 05:21   [3,211135]
   (NDT)          AI    .SOS    1983-06-09 21:17   [3,211135]
   (NDT)          AI    .AI     1977-07-08 05:22   [3,211135]
   (NDT)          AI    .V      1983-06-09 21:17   [3,211135]
   (NDT)          PFL37 .BAK    1977-09-23 05:29   [3,211135]
   (NDT)          PFL37 .       1977-09-23 08:37   [3,211135]
   (NDT)          STAKPR.SAI    1977-10-17 04:27   [3,211135]
   (NDT)          FJSAIL.HAD    1977-11-28 00:37   [3,211135]
   (NDT)          FJSAIL.NOW    1977-11-28 19:19   [3,211135]
   (NDT)          TSB   .SAI    1977-12-18 05:52   [3,211135]
   (NDT)          TSB   .ORL    1977-12-18 05:55   [3,211135]
   (NDT)          OPTAB .RES    1978-05-19 18:43   [3,211135]
   (NDT)          PUBFIX.MEM    1978-12-20 11:57   [3,211135]
   (NDT)          PCVOS .       1979-03-16 01:40   [3,211135]
   (NDT)          STABS .SAV    1979-06-25 18:20   [3,211135]
   (NDT)          KLEXP .CMP    1979-03-31 17:12   [3,211135]
   (NDT)          ST4   .SAI    1979-04-28 05:32   [3,211135]
   (NDT)          STABS .SAI    1979-06-21 09:03   [3,211135]
   (NDT)          CTOLD .FAI    1979-10-31 22:19   [3,211135]
   (NDT)          HAMMIT.SAI    1980-01-23 04:33   [3,211135]
   (NDT)          UPDBUG.SAI    1980-02-04 06:29   [3,211135]
   (NDT)          RPG   .INI    1981-05-13 22:23   [3,211135]
   (NDT)          PRTCMV.FAI    1980-05-02 01:18   [3,211135]
   (NDT)          DT    .SAI    1980-04-15 20:27   [3,211135]
   (NDT)          ADJBP .FAI    1980-06-06 05:10   [3,211135]
   (NDT)          GALX  .SAI    1980-08-01 02:08   [3,211135]
   (NDT)          NEWSAI.DOC    1980-08-05 00:23   [3,211135]
   (NDT)          FC29  .FAI    1980-08-20 18:36   [3,211135]
   (NDT)          SS    .DOC    1980-08-21 06:54   [3,211135]
   (NDT)          MAPCOP.SAI    1980-08-21 11:42   [3,211135]
   (NDT)          MAGIC .SAI    1980-08-23 23:48   [3,211135]
   (NDT)          PROBAL.SAI    1980-09-01 08:11   [3,211135]
   (NDT)          STRSER.OLD    1980-09-02 13:33   [3,211135]
   (NDT)          STRSER.WID    1980-09-02 14:18   [3,211135]
   (NDT)          INSTRS.SAI    1980-09-18 15:11   [3,211135]
   (NDT)          CMDLST.       1980-09-26 04:13   [3,211135]
   (NDT)          PO    .       1980-09-31 02:37   [3,211135]
   (NDT)          MISC  .FAI    1980-09-31 05:54   [3,211135]
   (NDT)          SORT  .FAI    1980-09-31 05:44   [3,211135]
   (NDT)          SCAN  .FAI    1980-09-31 04:48   [3,211135]
   (NDT)          MAIN  .RAI    1980-09-31 12:53   [3,211135]
   (NDT)          SORT  .RAI    1980-09-31 12:33   [3,211135]
   (NDT)          SCAN  .RAI    1980-09-29 09:06   [3,211135]
   (NDT)          RAIDV .RAI    1980-10-03 01:40   [3,211135]
   (NDT)          RAIDV .FAI    1980-10-09 23:35   [3,211135]
   (NDT)          X2    .DAT    1980-10-11 05:23   [3,211135]
   (NDT)          SCAN  .HDR    1980-10-17 04:42   [3,211135]
   (NDT)          SCANLO.FAI    1980-10-17 07:07   [3,211135]
   (NDT)          SCAN  .SAI    1980-10-17 08:12   [3,211135]
   (NDT)          33SCAN.SAI    1980-10-17 16:26   [3,211135]
   (NDT)          EXPRS .       1980-11-15 04:45   [3,211135]
   (NDT)          DATE  .FOR    1980-11-18 18:29   [3,211135]
   (NDT)          RDHPST.SAI    1980-11-21 23:51   [3,211135]
   (NDT)          SL    .DOC    1980-12-20 22:15   [3,211135]
   (NDT)          UNOMIT.SAI    1981-05-16 02:09   [3,211135]
   (NDT)          SPNTRE.SAI    1981-06-04 01:05   [3,211135]
   (NDT)          PUZZLE.PAS    1981-06-17 23:42   [3,211135]
   (NDT)          PUZZLE.SAI    1981-06-18 03:25   [3,211135]
   (NDT)          DRAN  .SAI    1981-07-22 19:51   [3,211135]
   (NDT)          SUMS  .AI     1981-07-28 21:40   [3,211135]
   (NDT)          PIECES.FAI    1981-08-03 23:23   [3,211135]
   (NDT)          CURCHK.SAI    1981-08-04 02:46   [3,211135]
   (NDT)          SQUASH.SAV    1982-09-22 00:50   [3,211135]
   (NDT)          BLTX  .DCL    1981-08-31 21:16   [3,211135]
   (NDT)          TRESHO.SAI    1981-09-02 04:33   [3,211135]
   (NDT)          TRESHO.SAV    1981-09-02 05:19   [3,211135]
   (NDT)          HASTRE.SAI    1981-09-04 09:45   [3,211135]
   (NDT)          BLTX  .FAI    1981-09-05 10:59   [3,211135]
   (NDT)          PRITRY.SAV    1981-09-10 23:10   [3,211135]
   (NDT)          PRITRY.SAI    1981-09-10 23:08   [3,211135]
   (NDT)          BLOAT2.SAI    1981-09-14 21:41   [3,211135]
   (NDT)          SRCCOM.OLD    1981-09-22 00:27   [3,211135]
   (NDT)          SRCCOM.SAI    1981-09-22 01:37   [3,211135]
   (NDT)          TRYOPL.SAI    1981-10-13 09:26   [3,211135]
   (NDT)          SLOE  .GRP    1981-10-13 21:20   [3,211135]
   (NDT)          CFINST.OLD    1981-12-14 06:19   [3,211135]
   (NDT)          KLINST.SLO    1981-12-14 23:59   [3,211135]
   (NDT)          LPRISK.SAI    1982-01-14 17:45   [3,211135]
   (NDT)          OPTAB .RLS    1978-05-19 18:54   [3,211135]
   (NDT)          NODLOD.SAI    1982-02-14 22:47   [3,211135]
   (NDT)          INTSHO.SAI    1982-03-13 06:05   [3,211135]
   (NDT)          IBPXXX.SLO    1982-04-08 20:47   [3,211135]
   (NDT)          LOG   .C      1982-07-28 23:27   [3,211135]
   (NDT)          BOX   .SAI    1982-09-10 23:16   [3,211135]
   (NDT)          VERPRT.REL    1982-09-17 14:02   [3,211135]
   (NDT)          VERPRT.FAI    1982-09-17 13:53   [3,211135]
   (NDT)          RDMAIL.SAI    1982-09-21 01:20   [3,211135]
   (NDT)          SQUASH.REL    1982-09-22 00:37   [3,211135]
   (NDT)          SQUASH.SAI    1982-09-22 00:25   [3,211135]
   (NDT)          BLTX  .REL    1982-09-22 00:40   [3,211135]
   (NDT)          SQUASH.DOC    1982-09-22 01:08   [3,211135]
   (NDT)          OUTCOD.SAI    1983-04-11 19:12   [3,211135]
   (NDT)          OUTCOD.DCL    1983-04-11 19:13   [3,211135]
   (NDT)          TYMOP .SAI    1983-06-07 19:28   [3,211135]
   (NDT)          U     .SCM    1983-10-18 19:58   [3,211135]
   (NDT)          CFINST.DIF    1982-01-27 22:48   [3,211135]
   (NDT)          OPTAB .OUT    1978-07-15 03:13   [3,211135]
   (NDT)          HEXIO .SAI    1982-03-20 01:24   [3,211135]
   (NDT)          STACK .SLO    1982-04-10 21:18   [3,211135]
   (NDT)          SL    .       1982-05-09 00:32   [3,211135]
   (NDT)          ANSIRD.SAI    1977-06-08 22:20   [3,211135]
   (NDT)          DARTRD.SAI    1977-06-16 00:37   [3,211135]
   (NDT)          DOCAIL.DIR    1977-06-29 02:04   [3,211135]
   (NDT)          BAIL  .USE    1977-06-31 19:41   [3,211135]
   (NDT)          OPNFIL.       1977-07-28 02:18   [3,211135]
   (NDT)          RPREL .SAI    1977-10-18 05:59   [3,211135]
   (NDT)          HALFIO.SAI    1977-10-23 21:23   [3,211135]
   (NDT)          RICANT.LTR    1977-10-24 02:15   [3,211135]
   (NDT)          PRTYPE.SAI    1977-12-18 05:38   [3,211135]
   (NDT)          HX    .SAI    1978-05-20 03:53   [3,211135]
   (NDT)          NEW   .OUT    1978-07-15 03:12   [3,211135]
   (NDT)          BLINK .SAI    1978-08-13 19:34   [3,211135]
   (NDT)          WRSSTA.SAI    1979-04-13 22:18   [3,211135]
   (NDT)          OCTIO .SAI    1979-05-15 22:50   [3,211135]
   (NDT)          OCTIO .HDR    1979-05-31 21:11   [3,211135]
   (NDT)          COMMUN.DOC    1979-06-11 21:28   [3,211135]
   (NDT)          CH    .SAI    1979-06-20 02:40   [3,211135]
   (NDT)          UUOSYM.FAI    1979-10-08 11:02   [3,211135]
   (NDT)          MAP3  .SAI    1979-10-26 01:45   [3,211135]
   (NDT)          3DIM  .FAI    1979-12-12 07:10   [3,211135]
   (NDT)          RELLST.SAI    1979-12-15 00:55   [3,211135]
   (NDT)          BAIL  .CHG    1980-01-13 16:45   [3,211135]
   (NDT)          WRTON .SAI    1980-02-03 19:23   [3,211135]
   (NDT)          FIND10.DOC    1980-02-06 01:59   [3,211135]
   (NDT)          DTRIG2.SAI    1980-03-01 02:22   [3,211135]
   (NDT)          C3    .SAI    1980-03-01 22:36   [3,211135]
   (NDT)          PLNUM .SAI    1980-03-02 05:23   [3,211135]
   (NDT)          PORTIA.FAI    1980-06-13 22:29   [3,211135]
   (NDT)          INIT  .SAI    1980-07-24 00:08   [3,211135]
   (NDT)          INIT  .MAC    1980-07-24 00:31   [3,211135]
   (NDT)          SPECL .GAL    1980-07-26 11:54   [3,211135]
   (NDT)          A     .SAI    1980-07-29 22:05   [3,211135]
   (NDT)          SCISS .SAI    1980-08-06 20:26   [3,211135]
   (NDT)          FOOCHK.FAI    1980-08-19 03:47   [3,211135]
   (NDT)          NEWTAB.DOC    1980-09-02 14:09   [3,211135]
   (NDT)          INIT  .SAV    1981-11-08 22:46   [3,211135]
   (NDT)          PTYS  .LST    1980-09-14 21:19   [3,211135]
   (NDT)          GLUE  .SAI    1980-09-15 06:14   [3,211135]
   (NDT)          SYSLIB.SAI    1980-09-18 15:07   [3,211135]
   (NDT)          HXMAP .SAI    1980-09-31 02:06   [3,211135]
   (NDT)          SYMBOL.SAI    1980-11-05 22:49   [3,211135]
   (NDT)          PTRAN .SAI    1980-11-15 04:56   [3,211135]
   (NDT)          STATUS.SAI    1980-11-22 00:03   [3,211135]
   (NDT)          EXTEND.SLB    1980-11-26 05:31   [3,211135]
   (NDT)          BAIL  .DOC    1981-01-09 13:48   [3,211135]
   (NDT)          DSORT .SAI    1981-01-09 14:36   [3,211135]
   (NDT)          BAIL  .SAI    1981-01-09 14:54   [3,211135]
   (NDT)          INTRO .TXT    1981-03-27 04:36   [3,211135]
   (NDT)          PROCAL.FAI    1981-03-29 00:14   [3,211135]
   (NDT)          NAMTAB.SAI    1981-04-13 17:28   [3,211135]
   (NDT)          DSORT .DIR    1981-05-22 22:49   [3,211135]
   (NDT)          HAKMEM.XAI    1981-05-28 11:43   [3,211135]
   (NDT)          STEST .SAI    1981-05-30 02:51   [3,211135]
   (NDT)          MERPQ .FAI    1981-06-04 08:43   [3,211135]
   (NDT)          BUGNEW.SAI    1981-06-05 05:16   [3,211135]
   (NDT)          RVS2  .SAI    1981-07-08 19:57   [3,211135]
   (NDT)          MAKSLB.SAI    1981-07-21 23:09   [3,211135]
   (NDT)          SYSWAT.SAI    1981-07-24 23:31   [3,211135]
   (NDT)          BUILD .SAI    1981-07-25 03:05   [3,211135]
   (NDT)          SLBMAK.SAI    1981-07-26 22:42   [3,211135]
   (NDT)          DCL39 .FDM    1975-01-05 00:00   [3,211135]
   (NDT)          UNQ2  .SAI    1981-08-08 01:11   [3,211135]
   (NDT)          UUOSYM.UNV    1981-08-19 05:09   [3,211135]
   (NDT)          SQUISH.SAI    1981-08-31 21:38   [3,211135]
   (NDT)          SQUISH.DCL    1981-08-31 21:38   [3,211135]
   (NDT)          SQUISH.MAC    1981-08-31 21:38   [3,211135]
   (NDT)          SQUISH.OLD    1981-09-04 10:05   [3,211135]
   (NDT)          SQUISH.FAI    1981-09-05 05:28   [3,211135]
   (NDT)          BLTY  .DCL    1981-09-11 02:06   [3,211135]
   (NDT)          BLTY  .FAI    1981-09-11 02:07   [3,211135]
   (NDT)          PRIQUE.FAI    1981-09-15 21:03   [3,211135]
   (NDT)          PRIQUE.DCL    1981-09-10 03:54   [3,211135]
   (NDT)          CST   .SAI    1981-10-01 23:33   [3,211135]
   (NDT)          UPL   .MDD    1981-10-09 22:51   [3,211135]
   (NDT)          RAIDSG.TXT    1981-10-15 21:03   [3,211135]
   (NDT)          RAIDSG.REL    1981-10-16 10:36   [3,211135]
   (NDT)          RAIDSG.660    1981-10-16 11:00   [3,211135]
   (NDT)          BEZIER.COD    1981-10-20 04:16   [3,211135]
   (NDT)          BSPLIN.SAI    1981-11-01 07:51   [3,211135]
   (NDT)          QUIRK .SAI    1981-11-06 23:47   [3,211135]
   (NDT)          EMACS .CHR    1981-12-21 20:45   [3,211135]
   (NDT)          FIXER .SLO    1981-12-23 22:33   [3,211135]
   (NDT)          INIT  .FAI    1982-01-28 11:52   [3,211135]
   (NDT)          FORM  .SLO    1982-03-12 00:50   [3,211135]
   (NDT)          EM    .SAI    1982-09-11 01:01   [3,211135]
   (NDT)          SQUISH.REL    1982-09-22 00:44   [3,211135]
   (NDT)          FTP   .SAI    1983-03-19 21:11   [3,211135]
   (NDT)          FTP   .SAV    1983-03-19 21:41   [3,211135]
   (NDT)          EM    .REL    1983-03-31 14:43   [3,211135]
   (NDT)          OUT   .SAI    1983-04-11 16:44   [3,211135]
   (NDT)          CT7   .SAI    1983-04-11 05:12   [3,211135]
   (NDT)          CURVE .OLD    1981-11-08 00:48   [3,211135]
   (NDT)          CURVE .SAI    1981-11-08 11:59   [3,211135]
   (NDT)          XIMM  .SAI    1981-11-12 20:35   [3,211135]
   (NDT)          XIMM  .PSE    1981-11-11 05:59   [3,211135]
   (NDT)          XIMM  .SA1    1981-11-11 00:49   [3,211135]
   (NDT)          XIMM  .PS1    1981-11-11 05:59   [3,211135]
   (NDT)          XIMM  .PS2    1981-11-11 23:15   [3,211135]
   (NDT)          XIMM  .PS3    1981-11-11 23:58   [3,211135]
   (NDT)          DIV   .SAI    1981-11-13 01:38   [3,211135]
   (NDT)          CURVE .BAS    1981-11-15 00:57   [3,211135]
   (NDT)          CURVE .MDD    1981-11-15 01:26   [3,211135]
   (NDT)          GETFIL.SAI    1977-06-24 15:41   [3,211135]
   (NDT)          XAIL  .DIR    1977-06-29 02:03   [3,211135]
   (NDT)          TNXAIL.DIR    1977-06-29 02:03   [3,211135]
   (NDT)          SAILIB.DIR    1977-06-29 02:05   [3,211135]
   (NDT)          DANIEL.DIR    1977-06-29 02:06   [3,211135]
   (NDT)          SAHEAD.DEF    1977-07-05 05:36   [3,211135]
   (NDT)          MT    .SAI    1977-07-12 08:07   [3,211135]
   (NDT)          GOGTAB.FTS    1977-08-31 07:40   [3,211135]
   (NDT)          GOGTAB.SAI    1977-08-31 11:35   [3,211135]
   (NDT)          GOGTAB.SRT    1977-10-17 01:34   [3,211135]
   (NDT)          GOGTAB.DOC    1981-05-16 00:53   [3,211135]
   (NDT)          UPAGEI.SAI    1977-10-30 22:52   [3,211135]
   (NDT)          UPAGEI.CMD    1977-10-31 16:39   [3,211135]
   (NDT)          GOGTAB.FDC    1977-11-27 23:33   [3,211135]
   (NDT)          MAPCHK.SAI    1977-12-23 18:49   [3,211135]
   (NDT)          NXS   .SAI    1978-01-04 08:03   [3,211135]
   (NDT)          CHKCVL.SAI    1978-05-12 04:25   [3,211135]
   (NDT)          SCOTT .EXP    1978-09-22 14:03   [3,211135]
   (NDT)          Z2    .SAI    1979-01-02 23:27   [3,211135]
   (NDT)          ZZZ   .SAI    1979-01-03 00:23   [3,211135]
   (NDT)          DIFDIF.SAI    1979-01-28 03:29   [3,211135]
   (NDT)          DIFDIF.SAV    1979-01-28 21:50   [3,211135]
   (NDT)          FTYP  .SAI    1979-03-18 08:02   [3,211135]
   (NDT)          BIGNUM.CMP    1979-03-31 02:38   [3,211135]
   (NDT)          BIGN37.CMP    1979-03-31 02:51   [3,211135]
   (NDT)          FULLDR.SAV    1981-09-17 14:47   [3,211135]
   (NDT)          FSHSPL.DOC    1979-05-04 03:14   [3,211135]
   (NDT)          BLOCKP.SAI    1979-05-17 01:49   [3,211135]
   (NDT)          MATHOP.HDR    1979-05-31 21:04   [3,211135]
   (NDT)          MATHOP.SAI    1979-06-01 21:21   [3,211135]
   (NDT)          STORE .MEM    1979-06-18 17:58   [3,211135]
   (NDT)          XPFIND.SAI    1979-09-31 04:01   [3,211135]
   (NDT)          SPOOL .DEF    1979-10-08 08:37   [3,211135]
   (NDT)          TSR   .       1979-12-19 00:27   [3,211135]
   (NDT)          SWAPD .SAI    1980-01-04 23:45   [3,211135]
   (NDT)          EXIST .MEM    1980-02-02 23:01   [3,211135]
   (NDT)          SNDB  .FAI    1980-02-18 01:05   [3,211135]
   (NDT)          DTRIG3.SAI    1980-03-01 02:26   [3,211135]
   (NDT)          STORE .CCL    1980-03-26 14:48   [3,211135]
   (NDT)          STORE .LST    1980-03-26 14:48   [3,211135]
   (NDT)          STORE .DIR    1980-03-26 16:11   [3,211135]
   (NDT)          LOADAL.SAI    1980-04-23 06:49   [3,211135]
   (NDT)          STKPR .SAI    1980-06-18 22:55   [3,211135]
   (NDT)          HPS   .       1980-07-26 03:51   [3,211135]
   (NDT)          COMMON.GAL    1980-07-26 13:03   [3,211135]
   (NDT)          I     .MAC    1980-08-05 01:13   [3,211135]
   (NDT)          GOGOL .OLD    1980-08-05 22:52   [3,211135]
   (NDT)          GOGOL .930    1980-08-06 23:02   [3,211135]
   (NDT)          FOONLY.BUG    1980-08-16 07:43   [3,211135]
   (NDT)          STRING.MEM    1980-08-21 06:54   [3,211135]
   (NDT)          HEAD  .       1980-08-21 19:06   [3,211135]
   (NDT)          GOGOL .BAK    1980-08-24 04:15   [3,211135]
   (NDT)          PSEUDO.SAI    1980-08-23 21:48   [3,211135]
   (NDT)          PSEUDO.FAI    1980-08-23 22:24   [3,211135]
   (NDT)          OTSTRB.FAI    1980-09-01 23:07   [3,211135]
   (NDT)          GOGOL .       1980-09-02 13:12   [3,211135]
   (NDT)          RAID  .FND    1980-09-24 20:34   [3,211135]
   (NDT)          RAID  .NDX    1980-09-24 20:31   [3,211135]
   (NDT)          RAID  .FAI    1980-09-29 08:14   [3,211135]
   (NDT)          RA    .FAI    1980-09-29 09:52   [3,211135]
   (NDT)          RAID  .SUB    1980-09-21 09:24   [3,211135]
   (NDT)          MAP36 .SAI    1980-10-04 07:57   [3,211135]
   (NDT)          SYM   .       1980-10-17 12:53   [3,211135]
   (NDT)          ADDPOS.FAI    1980-10-31 07:16   [3,211135]
   (NDT)          PT2   .SAI    1981-01-20 06:00   [3,211135]
   (NDT)          SHOWIT.SAI    1981-01-28 09:42   [3,211135]
   (NDT)          CT1   .FAI    1981-02-08 23:24   [3,211135]
   (NDT)          AREA  .SAI    1981-03-06 23:53   [3,211135]
   (NDT)          SPOOL .SAI    1981-03-07 02:24   [3,211135]
   (NDT)          RUNPRG.SAI    1981-03-13 03:34   [3,211135]
   (NDT)          CODOPT.SAI    1981-04-18 14:26   [3,211135]
   (NDT)          PQ    .SAI    1981-06-04 00:21   [3,211135]
   (NDT)          CLEAN .SAI    1981-06-04 23:52   [3,211135]
   (NDT)          CLEAN .SAV    1981-06-04 23:53   [3,211135]
   (NDT)          REFMAP.BLI    1981-07-07 00:07   [3,211135]
   (NDT)          REFMAP.SAI    1981-07-07 00:57   [3,211135]
   (NDT)          SYMTAB.SAI    1981-07-07 03:38   [3,211135]
   (NDT)          BYTDIF.SAI    1981-07-24 01:49   [3,211135]
   (NDT)          MAKS39.SAI    1981-07-26 22:46   [3,211135]
   (NDT)          CURSOR.FAI    1981-08-04 02:26   [3,211135]
   (NDT)          UNIQUE.SAI    1981-08-08 00:22   [3,211135]
   (NDT)          UNQ3  .SAI    1981-08-08 06:38   [3,211135]
   (NDT)          PUZZL2.PAS    1981-08-17 19:56   [3,211135]
   (NDT)          EMPIRE.AID    1981-05-11 19:18   [3,211135]
   (NDT)          PRODX .SAI    1981-09-08 20:25   [3,211135]
   (NDT)          FULLDR.SAI    1981-09-17 14:46   [3,211135]
   (NDT)          BLTZ  .FAI    1981-09-19 02:23   [3,211135]
   (NDT)          TVSTRI.NGS    1983-10-18 20:03   [3,211135]
   (NDT)          FOO   .SAI    1980-11-15 04:03   [3,211135]
   (NDT)          RAID  .REL    1981-10-14 14:59   [3,211135]
   (NDT)          DELTA .SCM    1982-10-11 00:36   [3,211135]
   (NDT)          USEBAD.BAK    1982-10-11 00:25   [3,211135]
   (NDT)          USEBAD.SAI    1982-10-11 00:25   [3,211135]
   (NDT)          USEBAD.REL    1982-10-11 02:03   [3,211135]
   (NDT)          USEBAD.SM1    1982-10-11 02:03   [3,211135]
   (NDT)          OUTTST.SAI    1983-04-11 19:12   [3,211135]
   (NDT)          SQSH2 .FAI    1981-09-05 02:44   [3,211135]
   (NDT)          BLTZ  .DCL    1981-09-14 21:31   [3,211135]
   (NDT)          CABNET.DOC    1981-09-17 14:56   [3,211135]
   (NDT)          CABNET.SAI    1981-09-17 16:07   [3,211135]
   (NDT)          PIPE  .SAI    1981-09-31 11:35   [3,211135]
   (NDT)          CPIPE .SAI    1981-10-01 04:11   [3,211135]
   (NDT)          RUMP  .HGH    1977-07-12 22:20   [3,211135]
   (NDT)          RUMP  .LOW    1977-07-12 22:22   [3,211135]
   (NDT)          SAISEG.CMD    1977-08-31 07:18   [3,211135]
   (NDT)          DSQRT .SAI    1977-09-13 10:08   [3,211135]
   (NDT)          PAGEIO.DOC    1977-09-30 01:34   [3,211135]
   (NDT)          UBIO  .SAI    1977-10-23 21:24   [3,211135]
   (NDT)          PAGEIO.DC2    1977-10-31 20:18   [3,211135]
   (NDT)          CASBUG.       1977-11-23 01:29   [3,211135]
   (NDT)          READFL.SAI    1978-01-30 14:47   [3,211135]
   (NDT)          33X   .SAI    1978-03-17 18:14   [3,211135]
   (NDT)          TXTFND.SAI    1978-03-31 16:10   [3,211135]
   (NDT)          USECOD.SAI    1978-05-12 04:25   [3,211135]
   (NDT)          USECOD.REQ    1978-05-12 04:25   [3,211135]
   (NDT)          WIZARD.SAI    1978-07-06 23:44   [3,211135]
   (NDT)          TC2   .BLI    1978-08-06 19:25   [3,211135]
   (NDT)          CVDBL .SAI    1979-02-04 22:37   [3,211135]
   (NDT)          TVSTR .TV     1979-03-17 01:06   [3,211135]
   (NDT)          BTST  .SAI    1979-03-29 21:28   [3,211135]
   (NDT)          QMAP  .LOC    1979-04-05 17:42   [3,211135]
   (NDT)          F2    .SAI    1979-05-01 22:57   [3,211135]
   (NDT)          BLOCK .SAI    1979-05-15 03:49   [3,211135]
   (NDT)          SCNMAC.UNV    1979-10-11 04:54   [3,211135]
   (NDT)          MAP   .SAV    1981-08-06 17:05   [3,211135]
   (NDT)          MAP   .SAI    1979-10-27 02:28   [3,211135]
   (NDT)          RTRAN .DOC    1979-11-13 23:00   [3,211135]
   (NDT)          MDF   .NOT    1980-02-15 21:21   [3,211135]
   (NDT)          CT9   .HST    1980-03-11 15:41   [3,211135]
   (NDT)          CT9   .SAV    1980-03-08 04:29   [3,211135]
   (NDT)          CT9   .SAI    1980-03-08 04:25   [3,211135]
   (NDT)          CT9   .TSR    1980-03-08 04:48   [3,211135]
   (NDT)          SC3   .SAI    1980-03-23 02:54   [3,211135]
   (NDT)          TYMCAL.DEF    1980-04-26 19:58   [3,211135]
   (NDT)          SAILOR.FUN    1980-08-22 22:12   [3,211135]
   (NDT)          TESTGC.       1980-09-03 09:21   [3,211135]
   (NDT)          PSPC  .SAI    1980-09-10 21:44   [3,211135]
   (NDT)          RAIDSB.FAI    1980-09-24 18:23   [3,211135]
   (NDT)          RAIDUN.FAI    1980-09-31 04:22   [3,211135]
   (NDT)          DRAID .FAI    1980-09-29 06:31   [3,211135]
   (NDT)          RAIDUN.RAI    1980-10-03 00:58   [3,211135]
   (NDT)          SUBS  .NRA    1980-10-03 07:48   [3,211135]
   (NDT)          MAPX  .SAI    1980-10-10 00:46   [3,211135]
   (NDT)          MAP12 .SAI    1980-10-13 20:09   [3,211135]
   (NDT)          SCNTST.SAI    1980-10-17 07:14   [3,211135]
   (NDT)          QX    .FAI    1980-11-14 00:18   [3,211135]
   (NDT)          STRTST.CRF    1980-11-16 21:26   [3,211135]
   (NDT)          QUEENS.SAI    1980-12-01 04:05   [3,211135]
   (NDT)          BAIFIL.SAI    1980-12-20 23:54   [3,211135]
   (NDT)          SAMFIL.SAI    1981-05-01 10:16   [3,211135]
   (NDT)          XXXBUG.SAI    1981-05-01 20:13   [3,211135]
   (NDT)          XX    .SAI    1981-05-10 00:11   [3,211135]
   (NDT)          SAIL20.BUG    1981-05-10 01:27   [3,211135]
   (NDT)          LOOPDE.SAI    1981-05-28 12:17   [3,211135]
   (NDT)          WRSDFR.SAI    1981-06-11 04:29   [3,211135]
   (NDT)          DCL930.FDM    1975-01-05 00:00   [3,211135]
   (NDT)          DCLRED.SAI    1981-07-27 02:00   [3,211135]
   (NDT)          CMPLUP.SAI    1981-08-08 13:08   [3,211135]
   (NDT)          SQ3   .SAV    1981-08-22 04:12   [3,211135]
   (NDT)          X     .SAI    1980-10-10 02:03   [3,211135]
   (NDT)          CMPRES.SAV    1981-09-06 00:48   [3,211135]
   (NDT)          CMPRES.CCL    1981-09-05 05:30   [3,211135]
   (NDT)          BLOAT .CCL    1981-09-05 09:25   [3,211135]
   (NDT)          BLOAT .SAV    1981-09-11 03:13   [3,211135]
   (NDT)          CMPRES.SAI    1981-09-06 00:42   [3,211135]
   (NDT)          BLOAT .CMD    1981-09-11 02:40   [3,211135]
   (NDT)          BLOAT .SAI    1981-09-12 02:41   [3,211135]
   (NDT)          HUFMAK.DCL    1981-09-15 20:56   [3,211135]
   (NDT)          HUFMAK.FAI    1981-09-15 21:41   [3,211135]
   (NDT)          BUGX  .SAI    1981-09-19 00:01   [3,211135]
   (NDT)          FEDCOM.SAI    1981-09-27 06:37   [3,211135]
   (NDT)          IBMPC .       1981-10-07 00:18   [3,211135]
   (NDT)          TTY   .MDD    1981-10-10 00:40   [3,211135]
   (NDT)          README.MDD    1981-10-10 00:44   [3,211135]
   (NDT)          SUBS  .FAI    1981-10-16 12:36   [3,211135]
   (NDT)          SUBS  .RAI    1981-10-16 13:18   [3,211135]
   (NDT)          CFIO  .OLD    1981-12-14 05:47   [3,211135]
   (NDT)          MU    .V0     1981-12-15 06:39   [3,211135]
   (NDT)          MU    .SAI    1981-12-22 02:54   [3,211135]
   (NDT)          RAIDSB.REL    1980-09-24 18:30   [3,211135]
   (NDT)          STRTST.REL    1982-07-09 22:42   [3,211135]
   (NDT)          STRTST.SAI    1982-07-09 22:38   [3,211135]
   (NDT)          STRNG .SAI    1980-10-29 23:58   [3,211135]
   (NDT)          GLOM  .SAI    1982-09-03 23:18   [3,211135]
   (NDT)          USEOK .SAI    1982-10-11 00:26   [3,211135]
   (NDT)          USECHK.SAI    1982-10-11 01:41   [3,211135]
   (NDT)          OUTIT .SAI    1983-04-11 05:12   [3,211135]
   (NDT)          NOD2  .SAI    1983-06-09 22:52   [3,211135]
   (NDT)          UPDATE.       1983-10-18 19:53   [3,211135]
   (NDT)          3CURVE.SAI    1981-11-08 04:05   [3,211135]
   (NDT)          C     .BAS    1981-11-14 02:27   [3,211135]
   (NDT)          KI    .KL     1981-12-06 22:26   [3,211135]
   (NDT)          MU    .SAV    1981-12-22 02:55   [3,211135]
   (NDT)          MUX   .SAI    1981-12-23 20:28   [3,211135]
   (NDT)          ECC3  .SAI    1981-12-26 23:51   [3,211135]
   (NDT)          CFIO  .DIF    1982-01-27 22:44   [3,211135]
   (NDT)          TRYSLO.SAI    1982-02-06 23:38   [3,211135]
   (NDT)          TRYDBL.SAI    1982-02-20 18:00   [3,211135]
   (NDT)          SETTRM.SAI    1979-12-07 22:30   [3,211135]
   (NDT)          QEND  .SLO    1982-04-01 22:25   [3,211135]
   (NDT)          IMULI .SLO    1982-04-01 23:48   [3,211135]
   (NDT)          DMOVNM.SLO    1982-04-08 18:33   [3,211135]
   (NDT)          PUSHES.SLO    1982-04-12 19:51   [3,211135]
   (NDT)          MUX   .NOT    1982-04-16 03:16   [3,211135]
   (NDT)          T12472.DIR    1977-06-28 21:04   [3,211135]
   (NDT)          SAIL  .DIR    1977-06-29 02:02   [3,211135]
   (NDT)          SPACE .SAI    1977-08-18 08:05   [3,211135]
   (NDT)          CORDAT.       1977-08-19 00:45   [3,211135]
   (NDT)          FILES .SRC    1977-08-31 04:23   [3,211135]
   (NDT)          DCONST.SAI    1977-09-27 05:45   [3,211135]
   (NDT)          BITMAP.SAI    1977-09-29 00:23   [3,211135]
   (NDT)          SIMERR.SAI    1977-10-10 00:40   [3,211135]
   (NDT)          TRIREL.SAI    1977-10-15 20:31   [3,211135]
   (NDT)          MAPPAG.DOC    1977-12-20 03:24   [3,211135]
   (NDT)          INTERP.FAI    1978-01-17 01:02   [3,211135]
   (NDT)          TBAIL .CMD    1978-01-18 01:49   [3,211135]
   (NDT)          TBAIL .       1978-01-18 02:42   [3,211135]
   (NDT)          WFWLIB.REQ    1978-01-25 09:01   [3,211135]
   (NDT)          ZOOM  .SAI    1978-01-27 18:46   [3,211135]
   (NDT)          ZOOM  .REQ    1978-01-30 13:08   [3,211135]
   (NDT)          SM1   .OLD    1978-04-06 16:51   [3,211135]
   (NDT)          SHMUCK.SAI    1978-04-07 00:55   [3,211135]
   (NDT)          ASSERT.SAI    1978-08-06 20:42   [3,211135]
   (NDT)          X22   .SAI    1978-08-31 01:04   [3,211135]
   (NDT)          SAIL  .REQ    1978-11-21 05:27   [3,211135]
   (NDT)          G2    .OLD    1978-12-17 05:57   [3,211135]
   (NDT)          ZZZZ  .SAI    1979-01-03 01:30   [3,211135]
   (NDT)          RECCTL.SAI    1979-03-11 01:54   [3,211135]
   (NDT)          FILES .       1979-03-23 19:52   [3,211135]
   (NDT)          SAIL  .BUG    1979-03-29 04:26   [3,211135]
   (NDT)          SAIL  .LUK    1979-05-02 20:49   [3,211135]
   (NDT)          F3    .SAI    1979-05-03 00:51   [3,211135]
   (NDT)          UNFICH.SAI    1979-05-04 02:18   [3,211135]
   (NDT)          SRCH  .SWT    1979-06-18 22:08   [3,211135]
   (NDT)          SWITCH.FND    1979-06-18 22:16   [3,211135]
   (NDT)          MHX   .SAI    1979-08-04 00:08   [3,211135]
   (NDT)          WORDIT.SAI    1979-09-30 20:34   [3,211135]
   (NDT)          BACKRS.FIX    1978-10-21 09:15   [3,211135]
   (NDT)          SAIL  .SIZ    1979-10-22 20:03   [3,211135]
   (NDT)          MA    .SAI    1979-11-13 00:02   [3,211135]
   (NDT)          PAUX  .SAI    1980-01-01 22:18   [3,211135]
   (NDT)          GETHAM.OUT    1980-01-26 02:03   [3,211135]
   (NDT)          GETHAM.IN     1980-01-26 02:37   [3,211135]
   (NDT)          GETHAM.SAI    1980-01-26 02:37   [3,211135]
   (NDT)          DTRIG .SAI    1980-03-01 02:17   [3,211135]
   (NDT)          WILD  .SAI    1980-03-10 00:29   [3,211135]
   (NDT)          CT3   .SAI    1980-03-12 07:51   [3,211135]
   (NDT)          MAP6  .SAI    1980-03-19 03:51   [3,211135]
   (NDT)          SM1   .SAI    1980-04-09 22:29   [3,211135]
   (NDT)          STUB  .SAI    1979-10-08 18:01   [3,211135]
   (NDT)          MAPPAG.SAI    1980-04-16 22:33   [3,211135]
   (NDT)          XFND  .SAI    1980-05-16 01:29   [3,211135]
   (NDT)          SLINK .SAI    1980-04-25 19:54   [3,211135]
   (NDT)          SDEF  .SAI    1980-05-02 22:37   [3,211135]
   (NDT)          SDEF  .DOC    1980-05-08 22:25   [3,211135]
   (NDT)          ILLINS.FAI    1980-07-26 19:48   [3,211135]
   (NDT)          BAILMX.DOC    1977-07-27 00:11   [3,211135]
   (NDT)          GOGXL .       1980-09-03 09:43   [3,211135]
   (NDT)          DSAVE .D0     1980-09-25 05:45   [3,211135]
   (NDT)          ZEN   .FAI    1980-10-02 20:24   [3,211135]
   (NDT)          ZEN   .SHR    1980-10-02 20:26   [3,211135]
   (NDT)          ROUTS .RAI    1980-09-31 10:19   [3,211135]
   (NDT)          DSAVE .DAT    1980-10-11 06:46   [3,211135]
   (NDT)          MAP13 .SAI    1980-10-16 21:59   [3,211135]
   (NDT)          SWITCH.INI    1980-10-17 14:11   [3,211135]
   (NDT)          MILSTB.PUB    1980-11-05 03:02   [3,211135]
   (NDT)          DX    .CMD    1980-11-05 06:59   [3,211135]
   (NDT)          FILES .NOT    1980-11-11 00:20   [3,211135]
   (NDT)          FILES .X      1980-11-19 02:21   [3,211135]
   (NDT)          SEARCH.V01    1975-01-05 00:00   [3,211135]
   (NDT)          ZP    .       1980-11-23 07:02   [3,211135]
   (NDT)          PAUX  .MAC    1980-12-07 02:27   [3,211135]
   (NDT)          CDBVER.SAI    1980-12-15 07:30   [3,211135]
   (NDT)          SAIL  .NEW    1981-01-14 20:05   [3,211135]
   (NDT)          G2    .       1979-05-23 05:24   [3,211135]
   (NDT)          SCOPE .SAI    1981-03-11 18:55   [3,211135]
   (NDT)          TUT3  .DOC    1981-03-21 22:17   [3,211135]
   (NDT)          AUXCOD.SAI    1981-03-27 02:08   [3,211135]
   (NDT)          PROCBU.SAI    1981-03-29 00:08   [3,211135]
   (NDT)          HELBNF.       1981-04-13 06:06   [3,211135]
   (NDT)          HELINT.SAI    1981-04-13 06:43   [3,211135]
   (NDT)          CLUMP .SUM    1981-05-14 19:07   [3,211135]
   (NDT)          CLUMP .SAI    1981-05-21 01:21   [3,211135]
   (NDT)          CLUMP .PIC    1981-05-21 20:40   [3,211135]
   (NDT)          RDB   .SAI    1981-05-22 18:46   [3,211135]
   (NDT)          RVS   .SAI    1981-05-22 20:18   [3,211135]
   (NDT)          RX    .SAI    1981-05-23 00:58   [3,211135]
   (NDT)          LP    .SAI    1981-05-28 11:42   [3,211135]
   (NDT)          BUGFTS.SAI    1981-06-05 02:51   [3,211135]
   (NDT)          BUG6  .SAI    1981-06-05 05:18   [3,211135]
   (NDT)          PROF  .SAI    1981-06-09 21:59   [3,211135]
   (NDT)          FILTOT.SAI    1981-08-08 05:08   [3,211135]
   (NDT)          CORREP.FAI    1981-09-04 04:54   [3,211135]
   (NDT)          TREE  .FAI    1981-09-12 02:17   [3,211135]
   (NDT)          LANG  .NOT    1982-03-26 21:45   [3,211135]
   (NDT)          XPORT .       1982-08-06 19:26   [3,211135]
   (NDT)          D     .       1982-09-15 17:56   [3,211135]
   (NDT)          XPORT .SAI    1982-09-24 03:40   [3,211135]
   (NDT)          SAIL  .DEF    1982-09-27 19:57   [3,211135]
   (NDT)          DULTST.REQ    1982-10-10 08:46   [3,211135]
   (NDT)          DULTST.SAI    1982-10-11 02:09   [3,211135]
   (NDT)          NOD3  .SAI    1983-06-10 01:25   [3,211135]
   (NDT)          MUCODE.LOG    1983-10-17 23:39   [3,211135]
   (NDT)          FILTOT.OUT    1981-08-08 05:24   [3,211135]
   (NDT)          TREE  .DCL    1981-09-12 02:41   [3,211135]
   (NDT)          SRCMAN.V01    1981-10-08 08:58   [3,211135]
   (NDT)          MAIL  .FWD    1984-02-29 10:41   [3,211135]
   (NDT)          UORAIL.DIR    1977-06-29 02:04   [3,211135]
   (NDT)          MAKTAB.OLD    1977-07-15 14:45   [3,211135]
   (NDT)          PROFIL.SAI    1977-09-12 03:47   [3,211135]
   (NDT)          PROFIL.       1977-09-23 09:24   [3,211135]
   (NDT)          PTYP  .SAI    1977-10-24 21:19   [3,211135]
   (NDT)          FSHDOC.       1978-01-08 14:12   [3,211135]
   (NDT)          SAIDMP.SAI    1978-01-09 19:51   [3,211135]
   (NDT)          TFILL .SAI    1978-01-27 20:39   [3,211135]
   (NDT)          XZ    .SAI    1978-01-30 13:03   [3,211135]
   (NDT)          TAPEID.LST    1978-02-18 20:24   [3,211135]
   (NDT)          P1    .SAI    1978-04-14 00:21   [3,211135]
   (NDT)          BAISYM.DOC    1978-05-18 01:02   [3,211135]
   (NDT)          MAIL  .BOX    1982-01-11 01:25   [3,211135]
   (NDT)          DRYDOC.SAI    1978-09-01 03:34   [3,211135]
   (NDT)          Z     .BAK    1979-01-03 01:28   [3,211135]
   (NDT)          Z     .SAI    1979-01-03 02:31   [3,211135]
   (NDT)          CASE  .SAI    1979-03-20 22:39   [3,211135]
   (NDT)          STONE .       1979-04-04 01:53   [3,211135]
   (NDT)          BINASC.SAI    1979-04-28 02:05   [3,211135]
   (NDT)          FICHE .SAI    1979-05-01 20:44   [3,211135]
   (NDT)          USER  .IN     1979-05-27 02:25   [3,211135]
   (NDT)          USER  .SAI    1979-05-27 02:26   [3,211135]
   (NDT)          DIRCOM.CMD    1979-05-29 01:28   [3,211135]
   (NDT)          SCISS2.SAI    1979-06-20 04:29   [3,211135]
   (NDT)          WRSBUG.2      1979-07-03 19:33   [3,211135]
   (NDT)          WRSBUG.1      1979-07-03 19:34   [3,211135]
   (NDT)          PROCES.DOC    1979-07-19 18:18   [3,211135]
   (NDT)          CASE  .BNF    1979-07-31 00:33   [3,211135]
   (NDT)          UNVPRT.SAI    1980-01-07 02:37   [3,211135]
   (NDT)          RPLACE.SAI    1980-02-03 23:57   [3,211135]
   (NDT)          TSTLRV.SAI    1980-02-17 08:01   [3,211135]
   (NDT)          MAP7  .SAI    1980-03-19 07:14   [3,211135]
   (NDT)          SHIT  .SAI    1980-04-20 05:17   [3,211135]
   (NDT)          SEMBLK.       1980-05-07 02:04   [3,211135]
   (NDT)          UINIT .FAI    1980-05-09 00:20   [3,211135]
   (NDT)          LXBUG .SAI    1980-05-09 21:36   [3,211135]
   (NDT)          SHIT  .MPT    1980-05-09 23:11   [3,211135]
   (NDT)          CIOSER.SAI    1980-05-10 01:57   [3,211135]
   (NDT)          PROCSS.SAI    1980-06-13 06:11   [3,211135]
   (NDT)          UI02  .OLD    1980-06-13 06:23   [3,211135]
   (NDT)          UI02  .SAI    1980-06-13 08:58   [3,211135]
   (NDT)          LCNT  .SAI    1980-06-17 22:42   [3,211135]
   (NDT)          GRAB  .SAV    1980-08-04 23:39   [3,211135]
   (NDT)          LISTER.MEM    1980-08-04 23:43   [3,211135]
   (NDT)          KNIFE .SAI    1980-08-05 22:15   [3,211135]
   (NDT)          TRAPPE.FAI    1980-08-16 08:32   [3,211135]
   (NDT)          HDRFI .FAI    1980-08-22 22:11   [3,211135]
   (NDT)          IOSER .       1980-09-02 13:54   [3,211135]
   (NDT)          MAKTAB.SAI    1980-09-03 06:03   [3,211135]
   (NDT)          IF    .CCL    1980-09-12 21:26   [3,211135]
   (NDT)          IOSER .NEW    1980-09-18 13:59   [3,211135]
   (NDT)          FRAID .PER    1980-09-29 05:59   [3,211135]
   (NDT)          FRAID .SAV    1981-08-01 10:14   [3,211135]
   (NDT)          FRAID .FAI    1980-09-29 05:58   [3,211135]
   (NDT)          DFDSIM.SAI    1980-10-16 21:54   [3,211135]
   (NDT)          REPCNT.MEM    1980-10-28 01:06   [3,211135]
   (NDT)          LINKER.SAI    1980-10-31 05:08   [3,211135]
   (NDT)          MILSTC.PUB    1980-11-05 03:05   [3,211135]
   (NDT)          HEL   .       1980-11-15 04:54   [3,211135]
   (NDT)          LNTEST.SAI    1980-11-22 00:39   [3,211135]
   (NDT)          INVOKE.SAI    1981-03-29 02:35   [3,211135]
   (NDT)          OTHER .TID    1981-04-18 00:44   [3,211135]
   (NDT)          SIGNMU.SAI    1981-05-01 04:11   [3,211135]
   (NDT)          BKFNS .SAI    1981-05-08 09:30   [3,211135]
   (NDT)          FUNNY .SAI    1981-05-16 00:54   [3,211135]
   (NDT)          DISTAB.SAI    1981-06-07 06:11   [3,211135]
   (NDT)          GRABPR.SAI    1981-06-07 11:29   [3,211135]
   (NDT)          PUZ2  .SAI    1981-06-18 11:48   [3,211135]
   (NDT)          MAKLIB.SAI    1981-07-26 22:47   [3,211135]
   (NDT)          HELASC.SAI    1981-07-28 21:42   [3,211135]
   (NDT)          HEL   .A2     1981-07-28 21:48   [3,211135]
   (NDT)          SUM   .AI     1981-07-28 21:50   [3,211135]
   (NDT)          TSTRDB.SAI    1981-07-29 20:13   [3,211135]
   (NDT)          MPX   .SAI    1981-08-07 22:43   [3,211135]
   (NDT)          NAMFIL.SAI    1981-08-18 23:34   [3,211135]
   (NDT)          NAMFIL.SAV    1981-08-18 23:40   [3,211135]
   (NDT)          SQX   .DCL    1981-08-27 02:52   [3,211135]
   (NDT)          SQX   .FAI    1981-08-31 21:41   [3,211135]
   (NDT)          CMPRE2.SAI    1981-09-14 21:50   [3,211135]
   (NDT)          SRCFED.SAI    1981-09-30 09:56   [3,211135]
   (NDT)          GAMES .MDD    1981-10-09 22:58   [3,211135]
   (NDT)          HELLO .MDD    1981-10-10 00:43   [3,211135]
   (NDT)          RAID42.       1981-10-14 18:14   [3,211135]
   (NDT)          RAIDIN.SAI    1981-10-16 03:27   [3,211135]
   (NDT)          RAIDIN.SAV    1981-10-16 03:29   [3,211135]
   (NDT)          CHSTOR.NOT    1982-02-08 18:04   [3,211135]
   (NDT)          CHSTOR.SAI    1982-02-08 21:33   [3,211135]
   (NDT)          F4    .DO     1982-08-14 02:43   [3,211135]
   (NDT)          CUTE  .MDD    1982-09-14 02:00   [3,211135]
   (NDT)          SOUNDX.NOT    1982-09-16 22:01   [3,211135]
   (NDT)          GRABPR.REL    1982-09-21 22:42   [3,211135]
   (NDT)          SQX   .REL    1982-09-22 00:40   [3,211135]
   (NDT)          NONAME.TXT    1982-10-11 00:12   [3,211135]
   (NDT)          WOMAN .TXT    1982-10-16 00:18   [3,211135]
   (NDT)          WOMAN .SAI    1982-10-16 00:28   [3,211135]
   (NDT)          NOD4  .SAI    1983-06-10 04:31   [3,211135]
   (NDT)          006TEL.COM    1984-02-29 10:41   [3,211135]
   (NDT)          006TEL.OUT    1984-02-29 10:41   [3,211135]
   (NDT)          PLOT  .OLD    1981-10-20 04:16   [3,211135]
   (NDT)          PLOT  .SAI    1981-10-20 10:45   [3,211135]
   (NDT)          FUN3  .TXT    1981-10-25 02:05   [3,211135]
   (NDT)          EXAM  .SAI    1977-06-24 15:38   [3,211135]
   (NDT)          DART  .OLD    1977-06-24 15:18   [3,211135]
   (NDT)          IMPORT.DIR    1977-06-29 02:05   [3,211135]
   (NDT)          RSQ   .SAV    1977-10-12 02:02   [3,211135]
   (NDT)          MACS  .       1977-07-27 00:10   [3,211135]
   (NDT)          XTHATR.CMD    1977-08-31 07:18   [3,211135]
   (NDT)          EDIT10.AI     1977-09-12 03:28   [3,211135]
   (NDT)          PFLSCN.OSA    1977-09-22 20:09   [3,211135]
   (NDT)          PFLSCN.SAI    1977-09-23 04:42   [3,211135]
   (NDT)          PFLSCN.REQ    1977-09-23 04:45   [3,211135]
   (NDT)          PFLSCN.COM    1977-09-23 05:51   [3,211135]
   (NDT)          FYSCMD.CMD    1977-01-03 19:02   [3,211135]
   (NDT)          RSQ   .SAI    1977-10-12 01:51   [3,211135]
   (NDT)          BIO   .SAI    1977-10-23 02:08   [3,211135]
   (NDT)          PRTYP .SAI    1977-10-27 12:26   [3,211135]
   (NDT)          DEBUG .REQ    1977-11-03 22:50   [3,211135]
   (NDT)          SWAPTS.SAI    1977-11-10 08:50   [3,211135]
   (NDT)          FRPBUG.SAI    1977-11-22 07:05   [3,211135]
   (NDT)          REMIND.DTA    1978-01-04 00:57   [3,211135]
   (NDT)          EDIT10.CRB    1978-01-10 23:41   [3,211135]
   (NDT)          ASSGN .SAI    1978-02-11 13:40   [3,211135]
   (NDT)          NUMCOD.SAI    1978-05-08 17:39   [3,211135]
   (NDT)          SUAI  .OLD    1978-05-20 06:14   [3,211135]
   (NDT)          SUAI  .SAI    1978-05-23 06:04   [3,211135]
   (NDT)          XDART .SAI    1978-05-31 02:53   [3,211135]
   (NDT)          DART  .SAI    1978-06-01 00:52   [3,211135]
   (NDT)          TEMKIL.SAI    1978-07-24 01:09   [3,211135]
   (NDT)          TC    .BLI    1978-07-24 04:03   [3,211135]
   (NDT)          TSTASS.SAI    1978-08-06 21:26   [3,211135]
   (NDT)          GALAXY.SAI    1978-09-01 09:00   [3,211135]
   (NDT)          SIMSYM.SAI    1979-03-28 01:36   [3,211135]
   (NDT)          REMIND.DAT    1979-04-04 00:22   [3,211135]
   (NDT)          ST3   .SAI    1979-04-27 04:31   [3,211135]
   (NDT)          TEST  .FSH    1979-05-04 01:01   [3,211135]
   (NDT)          MATHCK.SAI    1979-06-01 21:54   [3,211135]
   (NDT)          DIRALL.DOC    1979-06-11 21:09   [3,211135]
   (NDT)          STKOP .INS    1979-06-21 23:02   [3,211135]
   (NDT)          PRUNE .MOD    1979-07-05 02:55   [3,211135]
   (NDT)          STO   .FLS    1980-03-26 16:09   [3,211135]
   (NDT)          STO   .GO     1980-03-26 16:12   [3,211135]
   (NDT)          CKSUM .SAI    1980-04-02 21:48   [3,211135]
   (NDT)          DMATH .HDR    1980-04-15 20:39   [3,211135]
   (NDT)          F     .SAI    1980-04-17 21:52   [3,211135]
   (NDT)          MX    .SAI    1980-07-02 22:31   [3,211135]
   (NDT)          QUAD  .SAI    1980-07-28 04:02   [3,211135]
   (NDT)          TREDF .SAI    1980-08-01 01:44   [3,211135]
   (NDT)          INSET .NEW    1980-08-15 01:10   [3,211135]
   (NDT)          CKMATH.SAI    1980-08-16 06:04   [3,211135]
   (NDT)          FC    .FAI    1980-08-20 01:20   [3,211135]
   (NDT)          FCX   .FAI    1980-08-20 19:09   [3,211135]
   (NDT)          CTXX  .FAI    1980-08-21 07:13   [3,211135]
   (NDT)          ORDER .NEW    1980-08-22 21:31   [3,211135]
   (NDT)          ORDER .SGC    1980-09-01 09:18   [3,211135]
   (NDT)          ORDER .TYM    1980-09-01 09:19   [3,211135]
   (NDT)          ORDER .TST    1980-09-02 14:53   [3,211135]
   (NDT)          NRAID .FAI    1980-09-26 02:22   [3,211135]
   (NDT)          PRUNE .DAT    1982-09-22 19:45   [3,211135]
   (NDT)          RAIDVB.FAI    1980-09-31 04:21   [3,211135]
   (NDT)          PRUNE .RAI    1980-09-31 13:52   [3,211135]
   (NDT)          MAPPRT.SAI    1980-10-10 00:48   [3,211135]
   (NDT)          DSAVE0.DAT    1980-10-11 06:21   [3,211135]
   (NDT)          OINIT .FAI    1980-08-13 03:02   [3,211135]
   (NDT)          HPSTAT.SAI    1980-11-17 01:10   [3,211135]
   (NDT)          ERROR .SAI    1981-01-27 10:10   [3,211135]
   (NDT)          CROSE .SAI    1981-04-25 20:30   [3,211135]
   (NDT)          PHOTO .SAI    1981-05-24 02:49   [3,211135]
   (NDT)          PQ2   .SAI    1981-06-04 11:01   [3,211135]
   (NDT)          BUX   .SAI    1981-06-05 04:37   [3,211135]
   (NDT)          BUG1  .SAI    1981-06-05 05:27   [3,211135]
   (NDT)          TRYDFR.SAI    1981-06-10 22:56   [3,211135]
   (NDT)          T     .SAI    1981-06-11 05:45   [3,211135]
   (NDT)          CKS   .SAV    1981-07-21 18:22   [3,211135]
   (NDT)          CKS   .SAI    1981-07-25 09:25   [3,211135]
   (NDT)          SLB   .       1981-07-26 22:14   [3,211135]
   (NDT)          LNSORT.SAI    1981-08-07 03:07   [3,211135]
   (NDT)          TMSORT.SAI    1981-08-08 12:50   [3,211135]
   (NDT)          X1    .DAT    1980-10-10 02:35   [3,211135]
   (NDT)          COMPRS.SAI    1981-09-03 23:36   [3,211135]
   (NDT)          SAISGA.DMP    1981-09-04 10:19   [3,211135]
   (NDT)          HUFTRY.CMD    1981-09-15 23:25   [3,211135]
   (NDT)          HUFTRY.SAI    1981-09-16 01:42   [3,211135]
   (NDT)          TWALK .SAI    1981-09-16 07:57   [3,211135]
   (NDT)          DMATH .SAI    1981-10-22 03:39   [3,211135]
   (NDT)          DIRIT .INI    1981-12-08 04:05   [3,211135]
   (NDT)          FIXR  .SAI    1981-12-27 01:54   [3,211135]
   (NDT)          AST   .DOC    1982-07-29 23:49   [3,211135]
   (NDT)          BUG1  .REL    1982-09-21 21:39   [3,211135]
   (NDT)          CT5   .SAI    1983-03-27 20:47   [3,211135]
   (NDT)          NOD   .SAI    1983-05-28 18:51   [3,211135]
   (NDT)          NOD5  .SAI    1983-06-11 19:03   [3,211135]
   (NDT)          007TEL.COM    1984-02-29 10:41   [3,211135]
   (NDT)          007TEL.OUT    1984-02-29 10:41   [3,211135]
   (NDT)          HUFTRY.SAV    1981-09-16 08:06   [3,211135]
   (NDT)          10K   .FAI    1981-10-14 14:22   [3,211135]
   (NDT)          RAID70.TXT    1981-10-14 16:05   [3,211135]
   (NDT)          P2    .FAI    1981-10-16 12:56   [3,211135]
   (NDT)          DV2   .SAI    1981-11-13 06:42   [3,211135]
   (NDT)          CURV  .BAS    1981-11-15 00:53   [3,211135]
   (NDT)          CURV  .BAD    1981-11-14 21:03   [3,211135]
   (NDT)          CAST  .       1981-12-04 08:24   [3,211135]
   (NDT)          DIRIT .MAC    1981-12-20 23:30   [3,211135]
   (NDT)          DIRIT .HGH    1981-12-20 23:57   [3,211135]
   (NDT)          SPLINE.C      1981-10-20 04:25   [3,211135]
   (NDT)          MU324 .SAI    1981-10-20 15:57   [3,211135]
   (NDT)          SPLINE.COD    1981-10-21 09:01   [3,211135]
   (NDT)          SPLINE.SAI    1981-10-21 11:37   [3,211135]
   (NDT)          SP    .       1981-10-21 11:41   [3,211135]
   (NDT)          LIGHTS.TXT    1981-10-28 01:02   [3,211135]
   (NDT)          LIGHTS.F3     1981-10-28 02:07   [3,211135]
   (NDT)          LIGHTS.F3B    1981-10-28 02:42   [3,211135]
   (NDT)          LIGHTS.F3C    1981-10-28 02:57   [3,211135]
   (NDT)          MUCODE.SAI    1981-10-29 22:51   [3,211135]
   (NDT)          FOOMAK.SLO    1980-10-06 20:53   [3,211135]
   (NDT)          PL    .SAI    1981-11-01 09:35   [3,211135]
   (NDT)          CONTRL.SAI    1981-11-10 05:52   [3,211135]
   (NDT)          CONTRL.TXT    1981-11-03 23:22   [3,211135]
   (NDT)          PERP  .CMD    1981-11-05 22:27   [3,211135]
   (NDT)          PERP  .SAI    1981-11-06 00:22   [3,211135]
   (NDT)          PERP  .NOT    1981-11-10 04:07   [3,211135]
   (NDT)          TOPS20.SAI    1981-11-24 06:12   [3,211135]
   (NDT)          MUCODE.CTL    1981-10-31 00:24   [3,211135]
   (NDT)          CARRY .SLO    1981-12-09 02:52   [3,211135]
   (NDT)          TOPS20.PRB    1981-12-13 22:27   [3,211135]
   (NDT)          OLDMU .LOG    1982-01-27 20:45   [3,211135]
   (NDT)          2     .SCM    1982-01-27 02:14   [3,211135]
   (NDT)          NODELD.SAI    1982-02-14 19:13   [3,211135]
   (NDT)          LANG  .NAM    1982-03-26 21:25   [3,211135]
   (NDT)          SAY   .SAI    1982-04-13 19:29   [3,211135]
   (NDT)          DIRIT .LOW    1981-12-20 23:57   [3,211135]
   (NDT)          GALAXY.MDD    1982-01-07 21:21   [3,211135]
   (NDT)          REMNUM.SAI    1982-01-07 20:44   [3,211135]
   (NDT)          XSRC  .END    1982-01-10 22:03   [3,211135]
   (NDT)          FURRY .MDD    1982-01-17 02:39   [3,211135]
   (NDT)          SAILOG.T20    1982-01-26 04:50   [3,211135]
   (NDT)          003PCO.LOG    1982-01-27 22:44   [3,211135]
   (NDT)          [MAIL].       1983-08-19 23:25   [3,211135]
   (NDT)          GLOMM .SAI    1982-03-31 23:13   [3,211135]
   (NDT)          EXPL  .ASM    1982-04-09 07:03   [3,211135]
   (NDT)          DFTRAN.       1982-07-31 01:45   [3,211135]
   (NDT)          AST   .       1982-08-05 18:46   [3,211135]
   (NDT)          MOVSLJ.       1982-08-10 00:30   [3,211135]
   (NDT)          SYSTEM.MDD    1981-10-10 01:05   [3,211135]
   (NDT)          RAID  .SAI    1981-10-14 14:58   [3,211135]
   (NDT)          RAID  .DOC    1981-10-16 07:48   [3,211135]
   (NDT)          TELCHK.SAV    1982-03-16 04:59   [3,211135]
   (NDT)          TELCHK.V2     1981-11-03 00:15   [3,211135]
   (NDT)          UTAPE .MAC    1980-11-19 02:37   [3,211135]
   (NDT)          NUMBER.SAI    1981-10-28 07:04   [3,211135]
   (NDT)          F3BOOT.MAC    1981-10-29 02:04   [3,211135]
   (NDT)          SWINIT.SLO    1981-10-28 04:27   [3,211135]
   (NDT)          TELCHK.V1     1981-10-27 23:12   [3,211135]
   (NDT)          DATIME.SAI    1981-11-27 03:20   [3,211135]
   (NDT)          PTIME .SAI    1981-11-27 03:23   [3,211135]
   (NDT)          FILGET.SAI    1981-12-04 19:56   [3,211135]
   (NDT)          KIOPS .SLO    1981-12-08 03:40   [3,211135]
   (NDT)          RENUMB.SAI    1981-12-12 01:53   [3,211135]
   (NDT)          NOTICE.MDD    1981-12-26 18:34   [3,211135]
   (NDT)          LIST  .SAI    1981-11-18 02:15   [3,211135]
   (NDT)          PLOTN .SAI    1982-01-21 00:55   [3,211135]
   (NDT)          F33KLN.SLO    1982-01-27 23:05   [3,211135]
   (NDT)          MU327E.DOC    1982-01-28 13:13   [3,211135]
   (NDT)          HIBER .SAI    1982-02-10 21:39   [3,211135]
   (NDT)          NL    .SAI    1982-02-14 22:59   [3,211135]
   (NDT)          SAMPLE.SAI    1982-02-18 09:13   [3,211135]
   (NDT)          TELCHK.SAI    1982-03-16 04:43   [3,211135]
   (NDT)          TELCHK.DOC    1982-03-16 05:50   [3,211135]
   (NDT)          STORAG.TYM    1982-03-27 02:28   [3,211135]
   (NDT)          FUN3  .SAI    1981-10-25 03:43   [3,211135]
   (NDT)          TAPE  .SLO    1980-12-27 19:04   [3,211135]
   (NDT)          TAPMAK.SLO    1980-12-14 19:50   [3,211135]
   (NDT)          IDEAL .TXT    1981-11-22 02:40   [3,211135]
   (NDT)          IDEAL .SAI    1981-12-03 23:52   [3,211135]
   (NDT)          CMPBUG.MAR    1981-12-04 19:17   [3,211135]
   (NDT)          F4    .NOT    1981-12-07 00:57   [3,211135]
   (NDT)          ECC   .SAI    1981-12-26 21:31   [3,211135]
   (NDT)          PATMAK.F3     1981-12-27 22:21   [3,211135]
   (NDT)          PATMAK.KL     1981-12-27 22:23   [3,211135]
   (NDT)          PATMAK.SAI    1981-12-28 03:27   [3,211135]
   (NDT)          3     .SCM    1982-01-27 02:14   [3,211135]
   (NDT)          DBLXXX.MAC    1982-02-22 18:15   [3,211135]
   (NDT)          DBL   .MAC    1982-02-30 17:41   [3,211135]
   (NDT)          OPTRY .SAI    1982-02-31 21:17   [3,211135]
   (NDT)          DIS   .SAI    1982-03-21 00:36   [3,211135]
   (NDT)          CIRCUT.SAI    1982-05-03 02:55   [3,211135]
   (NDT)          CPR   .SAI    1982-05-13 23:28   [3,211135]
   (NDT)          STRNG .REL    1982-07-09 23:25   [3,211135]
   (NDT)          HASHES.SAI    1982-09-03 23:19   [3,211135]
   (NDT)          C     .       1982-09-06 01:26   [3,211135]
   (NDT)          CUR   .BAS    1981-11-15 01:44   [3,211135]
   (NDT)          DAYTIM.SAI    1981-11-26 00:34   [3,211135]
   (NDT)          FOO4  .SLO    1981-12-06 22:05   [3,211135]
   (NDT)          FILTRN.SAI    1982-01-08 16:57   [3,211135]
   (NDT)          RECENT.SAI    1982-01-09 21:58   [3,211135]
   (NDT)          BUFINT.SAI    1982-03-13 08:32   [3,211135]
   (NDT)          CVHEX .DCL    1982-03-21 00:32   [3,211135]
   (NDT)          CVHEX .SAI    1982-03-21 00:35   [3,211135]
   (NDT)          TRY   .SLO    1982-03-25 22:02   [3,211135]
   (NDT)          HPCOM .DOC    1982-04-14 23:18   [3,211135]
   (NDT)          DRYROT.SAI    1982-04-26 00:55   [3,211135]
   (NDT)          BAIL  .BAD    1981-01-09 14:54   [3,211135]
End of saveset, written by TITO v16.  

Start of saveset, written by TITO v16.  Tape #1, 1987-01-03 20:33
System: X32-P035/B.  Tape: 6250 bpi, 9 tracks.
   (YEUX)         XVUE  .LOW    1983-08-14 03:04   [3,377412]
   (YEUX)         VUE   .SHR    1982-08-13 05:14   [3,377412]
   (YEUX)         VUE   .LOW    1982-08-13 05:14   [3,377412]
   (YEUX)         XVUE  .SHR    1983-08-14 03:28   [3,377412]
   (YEUX)         VUE   .EXE    1971-09-02 12:55   [3,377412]
   (YEUX)         VIEW  .930    1987-01-03 02:44   [3,377412]
   (YEUX)         YEUX  .930    1987-01-03 02:20   [3,377412]
   (YEUX)         XUEY  .930    1987-01-03 02:37   [3,377412]
   (YEUX)         EYES  .930    1987-01-03 02:47   [3,377412]
   (YEUX)         OEIL  .930    1987-01-03 02:46   [3,377412]
   (YEUX)         VU    .930    1987-01-03 02:43   [3,377412]
End of saveset, written by TITO v16.  

Start of saveset, written by TITO v16.  Tape #1, 1987-01-03 20:36
System: X32-P035/B.  Tape: 6250 bpi, 9 tracks.
   (VUE)          VUE   .SHR    1981-08-21 01:38   [3,377411]
   (VUE)          VUE   .LOW    1981-08-21 01:38   [3,377411]
   (VUE)          VUE   .INF    1981-10-13 02:54   [3,377411]
   (VUE)          VUE   .EXE    1970-10-16 23:11   [3,377411]
   (VUE)          RPG   .INI    1984-08-25 20:40   [3,377411]
   (VUE)          VUE   .INI    1984-03-08 07:20   [3,377411]
   (VUE)          YEUX86.JAN    1986-06-05 08:07   [3,377411]
   (VUE)          YEUX86.FEB    1986-06-05 08:23   [3,377411]
   (VUE)          YEUX86.MAR    1986-06-05 08:37   [3,377411]
   (VUE)          YEUX86.1QT    1986-06-05 08:57   [3,377411]
   (VUE)          YEUX86.APR    1986-06-05 09:32   [3,377411]
   (VUE)          YEUX86.MAY    1986-06-05 09:53   [3,377411]
   (VUE)          YEUX86.JUN    1986-06-05 10:31   [3,377411]
   (VUE)          YEUX86.2QT    1986-06-05 11:01   [3,377411]
   (VUE)          YEUX86.JUL    1986-06-05 21:57   [3,377411]
   (VUE)          YEUX86.AUG    1986-06-05 21:58   [3,377411]
   (VUE)          YEUX86.SEP    1986-06-05 21:58   [3,377411]
   (VUE)          YEUX86.3QT    1986-06-05 22:16   [3,377411]
   (VUE)          ACCESS.OLD    1981-06-31 14:35   [3,377411]
   (VUE)          VUE   .BLI    1982-08-13 14:00   [3,377411]
   (VUE)          TABLE .BLI    1981-09-30 13:12   [3,377411]
   (VUE)          EXTRA .BLI    1981-09-30 10:34   [3,377411]
   (VUE)          IDCHAR.BLI    1981-09-30 04:47   [3,377411]
   (VUE)          REDISP.BLI    1982-02-03 00:22   [3,377411]
   (VUE)          FILECO.BLI    1981-07-02 21:22   [3,377411]
   (VUE)          SHOW  .BLI    1981-11-18 08:46   [3,377411]
   (VUE)          VUE   .DIF    1981-07-24 06:34   [3,377411]
   (VUE)          VUE   .C54    1981-11-27 03:37   [3,377411]
   (VUE)          VUE   .C47    1981-09-27 04:01   [3,377411]
   (VUE)          REDISP.B66    1981-12-06 07:22   [3,377411]
   (VUE)          IDCHAR.B66    1981-12-06 07:12   [3,377411]
   (VUE)          IDCHAR.B50    1981-09-29 14:21   [3,377411]
   (VUE)          IDCHAR.B31    1981-06-31 14:34   [3,377411]
   (VUE)          VUELNK.117    1982-06-17 04:46   [3,377411]
   (VUE)          IDCHAR.117    1982-06-16 16:17   [3,377411]
   (VUE)          REDISP.117    1982-06-16 16:16   [3,377411]
   (VUE)          REDISP.110    1982-01-22 00:16   [3,377411]
   (VUE)          VUE   .122    1971-07-23 03:30   [3,377411]
   (VUE)          LNKVUE.C47    1981-09-27 04:01   [3,377411]
   (VUE)          VUE   .A30    1981-07-26 17:47   [3,377411]
   (VUE)          REDISP.CUR    1981-11-18 07:59   [3,377411]
   (VUE)          VUE125.LOW    1982-08-01 00:42   [3,377411]
   (VUE)          VUE125.SHR    1982-08-01 00:41   [3,377411]
   (VUE)          ABBREV.BLI    1981-07-26 09:12   [3,377411]
   (VUE)          TABLE .BLX    1981-09-30 13:12   [3,377411]
   (VUE)          EXTRA .BLX    1981-09-30 10:34   [3,377411]
   (VUE)          VUELST.OLD    1981-06-31 14:37   [3,377411]
   (VUE)          VUE   .SYS    1982-01-20 19:09   [3,377411]
   (VUE)          VUE   .B55    1981-11-26 15:32   [3,377411]
   (VUE)          REDISP.B55    1981-11-26 13:04   [3,377411]
   (VUE)          SHOW  .B55    1981-11-18 08:46   [3,377411]
   (VUE)          TABLE .B55    1981-09-30 13:12   [3,377411]
   (VUE)          EXTRA .B55    1981-09-30 10:34   [3,377411]
   (VUE)          IDCHAR.B55    1981-09-30 04:47   [3,377411]
   (VUE)          ABBREV.B55    1981-07-26 09:12   [3,377411]
   (VUE)          QREPL .B55    1981-07-26 08:34   [3,377411]
   (VUE)          VUELST.INF    1981-11-27 03:13   [3,377411]
   (VUE)          VUE   .CTL    1981-10-20 07:14   [3,377411]
   (VUE)          VUE   .SCM    1981-10-12 03:04   [3,377411]
   (VUE)          VUE   .BLX    1981-08-20 06:57   [3,377411]
   (VUE)          VUE   .BUG    1981-06-31 14:36   [3,377411]
   (VUE)          VUE55 .INF    1981-11-26 15:16   [3,377411]
   (VUE)          VUE   .WSH    1982-11-25 09:17   [3,377411]
   (VUE)          ACCESS.BAK    1984-02-23 03:44   [3,377411]
   (VUE)          LINDA .SAV    1984-08-01 04:01   [3,377411]
   (VUE)          DUSAGE.DAT    1984-11-20 10:08   [3,377411]
   (VUE)          DUSAGE.RPT    1984-11-20 10:08   [3,377411]
   (VUE)          OLDVUE.LOW    1981-01-25 13:09   [3,377411]
   (VUE)          OLDVUE.SHR    1981-01-25 13:09   [3,377411]
   (VUE)          BUFFER.BLI    1981-10-13 03:09   [3,377411]
   (VUE)          EXTEND.BLI    1982-08-13 14:27   [3,377411]
   (VUE)          STATUS.BLI    1981-09-29 15:34   [3,377411]
   (VUE)          TMP   .BLI    1981-06-31 14:35   [3,377411]
   (VUE)          VUE117.LOW    1982-06-17 04:47   [3,377411]
   (VUE)          VUE117.SHR    1982-06-17 04:47   [3,377411]
   (VUE)          VUE110.LOW    1982-01-31 06:54   [3,377411]
   (VUE)          VUE110.SHR    1982-01-31 06:54   [3,377411]
   (VUE)          VIEW  .126    1982-08-01 05:05   [3,377411]
   (VUE)          VIEW  .M71    1982-01-08 04:36   [3,377411]
   (VUE)          VIEW  .M66    1981-12-11 06:03   [3,377411]
   (VUE)          BUFFER.B55    1981-11-29 15:21   [3,377411]
   (VUE)          EXTEND.B55    1981-10-02 11:59   [3,377411]
   (VUE)          STATUS.B55    1981-09-29 15:34   [3,377411]
   (VUE)          TMP   .B55    1981-06-31 14:35   [3,377411]
   (VUE)          VIEW  .CRF    1981-11-26 15:34   [3,377411]
   (VUE)          DVUE  .CMD    1981-11-12 22:34   [3,377411]
   (VUE)          VIEW  .SCM    1981-10-12 03:05   [3,377411]
   (VUE)          EXTEND.001    1981-07-01 08:46   [3,377411]
   (VUE)          VIEW55.MAC    1981-11-26 15:10   [3,377411]
   (VUE)          UUOSYM.UNV    1981-06-31 14:56   [3,377411]
   (VUE)          VIEW  .LST    1983-05-15 05:55   [3,377411]
   (VUE)          009TEL.COM    1985-07-05 00:16   [3,377411]
   (VUE)          009TEL.OUT    1985-07-05 00:16   [3,377411]
   (VUE)          DEF   .TXT    1981-01-11 12:19   [3,377411]
   (VUE)          MODES .BLI    1981-09-27 04:00   [3,377411]
   (VUE)          CURSOR.BLI    1981-08-11 23:07   [3,377411]
   (VUE)          TTYCOR.MAC    1981-12-03 02:51   [3,377411]
   (VUE)          PASCAL.REL    1981-11-12 21:16   [3,377411]
   (VUE)          PASCAL.BLI    1981-08-12 10:25   [3,377411]
   (VUE)          REBIND.BLI    1981-07-26 08:39   [3,377411]
   (VUE)          REBIND.REL    1981-11-12 21:18   [3,377411]
   (VUE)          VUE120.LOW    1982-07-19 10:07   [3,377411]
   (VUE)          VUE120.SHR    1982-07-19 10:07   [3,377411]
   (VUE)          VUE66 .LOW    1982-01-08 00:45   [3,377411]
   (VUE)          VUE66 .SHR    1982-01-08 00:45   [3,377411]
   (VUE)          FIXFIL.ARC    1982-08-01 02:49   [3,377411]
   (VUE)          CURSOR.B71    1982-01-08 04:32   [3,377411]
   (VUE)          CURSOR.B61    1981-08-11 23:07   [3,377411]
   (VUE)          PASLST.INF    1981-11-21 13:01   [3,377411]
   (VUE)          CURSOR.ALL    1982-01-08 23:11   [3,377411]
   (VUE)          CURSOR.R71    1982-01-08 04:37   [3,377411]
   (VUE)          BUF   .B55    1981-11-27 05:37   [3,377411]
   (VUE)          MODES .B55    1981-09-27 04:00   [3,377411]
   (VUE)          CURSOR.B55    1981-08-11 23:07   [3,377411]
   (VUE)          REBIND.B55    1981-07-26 08:39   [3,377411]
   (VUE)          JOBDAT.UNV    1981-06-31 14:56   [3,377411]
   (VUE)          MOO   .MAI    1984-01-25 03:32   [3,377411]
   (VUE)          VUECRD.TXT    1981-01-25 17:42   [3,377411]
   (VUE)          ADVENT.DIR    1984-05-24 15:39   [3,377411]
   (VUE)          YEUX82.AUG    1982-10-20 10:34   [3,377411]
   (VUE)          YEUX82.DEC    1982-09-20 10:08   [3,377411]
   (VUE)          YEUX82.NOV    1982-08-01 08:08   [3,377411]
   (VUE)          YEUX82.OCT    1982-07-11 01:04   [3,377411]
   (VUE)          YEUX  .81     1981-08-13 08:04   [3,377411]
   (VUE)          BBARRE.FIX    1981-04-05 11:52   [3,377411]
   (VUE)          WINDOW.BLI    1981-09-09 22:17   [3,377411]
   (VUE)          IDLINE.BLI    1981-07-25 14:11   [3,377411]
   (VUE)          NAME  .REL    1982-01-22 01:55   [3,377411]
   (VUE)          NAME  .BLI    1982-01-22 01:00   [3,377411]
   (VUE)          PASRTN.       1981-11-21 13:44   [3,377411]
   (VUE)          VUE121.LOW    1982-07-20 08:42   [3,377411]
   (VUE)          VUE121.SHR    1982-07-20 08:41   [3,377411]
   (VUE)          WINDOW.B66    1982-01-07 23:50   [3,377411]
   (VUE)          IDLINE.B66    1981-12-06 07:11   [3,377411]
   (VUE)          IDLINE.117    1982-06-16 16:16   [3,377411]
   (VUE)          C     .B55    1981-11-29 15:14   [3,377411]
   (VUE)          WINDOW.B55    1981-11-26 15:11   [3,377411]
   (VUE)          IDLINE.B55    1981-07-25 14:11   [3,377411]
   (VUE)          BLILIB.REL    1981-06-31 14:55   [3,377411]
   (VUE)          SCNMAC.UNV    1981-02-04 09:37   [3,377411]
   (VUE)          FDM   .FDM    1983-11-22 01:06   [3,377411]
   (VUE)          VUEF  .100    1983-12-04 23:30   [3,377411]
   (VUE)          PEAK  .TUT    1983-11-22 21:20   [3,377411]
   (VUE)          VUEKRD.TXT    1981-01-25 17:41   [3,377411]
   (VUE)          GAME  .SAV    1984-04-24 23:53   [3,377411]
   (VUE)          PEAK  .BAK    1984-06-02 20:29   [3,377411]
   (VUE)          PEAK  .INI    1984-08-17 02:23   [3,377411]
   (VUE)          YEUX83.JUN    1983-02-23 23:35   [3,377411]
   (VUE)          YEUX83.MAY    1983-02-04 02:36   [3,377411]
   (VUE)          YEUX83.APR    1983-01-04 07:31   [3,377411]
   (VUE)          YEUX83.MAR    1982-12-01 04:09   [3,377411]
   (VUE)          YEUX83.FEB    1982-11-05 11:34   [3,377411]
   (VUE)          YEUX83.JAN    1982-10-20 11:19   [3,377411]
   (VUE)          YEUX83.JUL    1983-03-23 05:50   [3,377411]
   (VUE)          YEUX83.AUG    1983-04-23 19:35   [3,377411]
   (VUE)          YEUX83.SEP    1983-05-22 07:16   [3,377411]
   (VUE)          YEUX83.OCT    1983-06-26 03:13   [3,377411]
   (VUE)          YEUX83.NOV    1983-08-27 17:43   [3,377411]
   (VUE)          YEUX83.DEC    1983-08-27 17:51   [3,377411]
   (VUE)          SWITCH.INI    1984-03-04 06:20   [3,377411]
   (VUE)          FILESC.BLI    1981-06-31 14:35   [3,377411]
   (VUE)          SYMS  .BLI    1981-07-26 08:45   [3,377411]
   (VUE)          PROT  .MAC    1981-10-08 14:21   [3,377411]
   (VUE)          METX  .       1981-06-31 14:35   [3,377411]
   (VUE)          FILESC.B74    1981-06-31 14:35   [3,377411]
   (VUE)          FINE  .RND    1981-07-01 08:46   [3,377411]
   (VUE)          FINE  .DOC    1981-06-31 14:39   [3,377411]
   (VUE)          VMACS .IDX    1981-06-31 14:37   [3,377411]
   (VUE)          FINE  .SHR    1982-10-20 23:40   [3,377411]
   (VUE)          FINE  .LOW    1982-10-20 23:40   [3,377411]
   (VUE)          GETSTR.B55    1981-07-26 09:35   [3,377411]
   (VUE)          HELP  .B55    1981-07-26 08:53   [3,377411]
   (VUE)          SYMS  .B55    1981-07-26 08:45   [3,377411]
   (VUE)          FILESC.B55    1981-06-31 14:35   [3,377411]
   (VUE)          SYMS  .FOO    1981-09-30 06:49   [3,377411]
   (VUE)          HELP  .CRD    1981-06-31 14:36   [3,377411]
   (VUE)          VUELOG.TXT    1983-11-10 21:28   [3,377411]
   (VUE)          SWITCH.BAK    1984-01-11 19:18   [3,377411]
   (VUE)          CT4   .MAC    1981-06-31 14:11   [3,377411]
   (VUE)          CT4   .SAV    1981-06-31 14:11   [3,377411]
   (VUE)          YEUX84.JAN    1983-11-28 05:00   [3,377411]
   (VUE)          YEUX84.FEB    1983-11-28 05:12   [3,377411]
   (VUE)          YEUX84.MAR    1983-11-28 05:24   [3,377411]
   (VUE)          YEUX84.1QT    1983-11-28 05:56   [3,377411]
   (VUE)          YEUX84.APR    1984-02-19 21:46   [3,377411]
   (VUE)          YEUX84.MAY    1984-04-06 08:36   [3,377411]
   (VUE)          YEUX84.JUN    1984-04-06 08:53   [3,377411]
   (VUE)          YEUX84.JUL    1984-04-06 09:03   [3,377411]
   (VUE)          YEUX84.2QT    1984-04-08 05:54   [3,377411]
   (VUE)          YEUX84.AUG    1984-10-20 10:09   [3,377411]
   (VUE)          YEUX84.SEP    1984-10-20 10:17   [3,377411]
   (VUE)          YEUX84.3QT    1984-10-20 10:38   [3,377411]
   (VUE)          YEUX84.OCT    1984-11-06 00:24   [3,377411]
   (VUE)          YEUX84.NOV    1984-11-07 06:32   [3,377411]
   (VUE)          YEUX84.DEC    1984-11-07 06:42   [3,377411]
   (VUE)          YEUX84.4QT    1984-11-07 07:21   [3,377411]
   (VUE)          DISPAT.BLI    1981-08-12 08:29   [3,377411]
   (VUE)          CCL   .BLI    1981-08-11 23:00   [3,377411]
   (VUE)          VUE53 .SHR    1981-10-20 07:10   [3,377411]
   (VUE)          VUE53 .LOW    1981-10-20 07:10   [3,377411]
   (VUE)          CCL   .B54    1981-11-27 02:55   [3,377411]
   (VUE)          VUE123.LOW    1982-07-25 21:29   [3,377411]
   (VUE)          VUE123.SHR    1982-07-25 21:29   [3,377411]
   (VUE)          JUST  .HLD    1982-07-19 14:08   [3,377411]
   (VUE)          MAIL  .BOX    1971-03-14 09:50   [3,377411]
   (VUE)          DISPAT.B55    1981-11-27 03:37   [3,377411]
   (VUE)          ISERCH.B55    1981-07-26 09:09   [3,377411]
   (VUE)          JUST  .B55    1981-06-31 14:30   [3,377411]
   (VUE)          ML2   .       1984-06-28 00:38   [3,377411]
   (VUE)          ML2   .REL    1984-06-28 00:39   [3,377411]
   (VUE)          MAIL  .       1985-01-08 23:57   [3,377411]
   (VUE)          MAIN01.VUE    1985-05-15 23:37   [3,377411]
   (VUE)          YEUX85.JAN    1984-11-07 08:51   [3,377411]
   (VUE)          YEUX85.FEB    1984-11-13 05:08   [3,377411]
   (VUE)          YEUX85.MAR    1984-11-13 05:19   [3,377411]
   (VUE)          YEUX85.1QT    1984-11-13 05:53   [3,377411]
   (VUE)          YEUX85.APR    1984-12-17 20:47   [3,377411]
   (VUE)          YEUX85.MAY    1985-02-11 00:18   [3,377411]
   (VUE)          YEUX85.JUN    1985-04-18 16:34   [3,377411]
   (VUE)          YEUX85.JUL    1985-05-17 01:03   [3,377411]
   (VUE)          YEUX85.AUG    1985-05-17 01:15   [3,377411]
   (VUE)          YEUX85.2QT    1985-05-15 23:53   [3,377411]
   (VUE)          YEUX85.SEP    1985-05-17 01:19   [3,377411]
   (VUE)          YEUX85.3QT    1985-05-17 01:32   [3,377411]
   (VUE)          YEUX85.OCT    1985-08-10 02:57   [3,377411]
   (VUE)          YEUX85.NOV    1985-08-10 03:25   [3,377411]
   (VUE)          YEUX85.DEC    1985-08-10 03:34   [3,377411]
   (VUE)          YEUX85.4QT    1985-08-10 04:43   [3,377411]
   (VUE)          GETUSE.MAC    1981-10-08 15:28   [3,377411]
   (VUE)          TEST  .BLI    1982-08-13 09:57   [3,377411]
   (VUE)          GETRTN.       1981-09-29 18:57   [3,377411]
   (VUE)          MACTEN.UNV    1981-06-31 14:56   [3,377411]
End of saveset, written by TITO v16.  

Start of saveset, written by TITO v16.  Tape #1, 1987-01-03 20:39
System: X32-P035/B.  Tape: 6250 bpi, 9 tracks.
   (IMPORT)       BIGDEB.CMD    1981-09-25 22:55   [3,152602]
   (IMPORT)       GETYR .FOR    1981-09-25 22:42   [3,152602]
   (IMPORT)       CAB   .MAC    1981-09-25 21:46   [3,152602]
   (IMPORT)       FD    .       1981-09-25 11:54   [3,152602]
   (IMPORT)       STUART.MAC    1981-09-29 20:35   [3,152602]
   (IMPORT)       STUART.UNV    1981-09-29 11:15   [3,152602]
   (IMPORT)       TALK  .CUA    1981-09-29 12:03   [3,152602]
   (IMPORT)       TALK  .EXE    1981-09-29 12:15   [3,152602]
   (IMPORT)       TALK  .MAC    1981-09-29 12:15   [3,152602]
   (IMPORT)       SCOOP .MIC    1983-07-01 21:55   [3,152602]
   (IMPORT)       SCOOP .UTH    1983-07-01 21:49   [3,152602]
   (IMPORT)       SCOOP .FOR    1983-07-01 21:44   [3,152602]
   (IMPORT)       SCOOP .RNH    1983-07-01 10:41   [3,152602]
   (IMPORT)       SCOOP .COM    1983-07-01 09:31   [3,152602]
   (IMPORT)       SCOOP .DOC    1983-07-01 01:24   [3,152602]
   (IMPORT)       SCOOP .RND    1983-07-01 01:22   [3,152602]
   (IMPORT)       LNKPIP.CCL    1983-07-01 16:42   [3,152602]
   (IMPORT)       PIP   .MAC    1983-07-01 03:41   [3,152602]
   (IMPORT)       MTCOPY.MAC    1983-07-01 13:17   [3,152602]
   (IMPORT)       CENTER.FOR    1981-09-25 00:00   [3,152602]
   (IMPORT)       CLEARL.FOR    1981-09-25 20:01   [3,152602]
   (IMPORT)       DRT5  .DOC    1978-07-30 10:10   [3,152602]
   (IMPORT)       LNSPIP.CCL    1983-07-01 23:42   [3,152602]
   (IMPORT)       DATES .FOR    1981-09-25 03:20   [3,152602]
   (IMPORT)       NEWD  .CMD    1981-09-25 11:22   [3,152602]
   (IMPORT)       NEWD  .EXE    1981-09-25 11:08   [3,152602]
   (IMPORT)       NEWD  .MAC    1981-09-25 22:07   [3,152602]
   (IMPORT)       NEWD  .HLP    1981-09-25 17:08   [3,152602]
   (IMPORT)       B     .INF    1981-09-25 17:30   [3,152602]
   (IMPORT)       FOO   .LOW    1981-09-25 03:40   [3,152602]
   (IMPORT)       FOO   .HGH    1981-09-25 03:40   [3,152602]
   (IMPORT)       BLDPIP.CTL    1983-07-01 16:41   [3,152602]
   (IMPORT)       LNKMTC.CCL    1983-07-01 11:40   [3,152602]
   (IMPORT)       GETNAM.FOR    1981-09-25 18:41   [3,152602]
   (IMPORT)       SETDAY.FOR    1981-09-25 22:56   [3,152602]
   (IMPORT)       SCANER.MAC    1981-09-25 15:29   [3,152602]
   (IMPORT)       BIRTH .DAT    1981-09-26 12:38   [3,152602]
   (IMPORT)       MAKVFU.MAC    1981-05-07 11:44   [3,152602]
   (IMPORT)       MAKVFU.HLP    1981-05-07 11:44   [3,152602]
   (IMPORT)       MAKVFU.DOC    1981-05-07 11:44   [3,152602]
   (IMPORT)       MAKVFU.SHR    1970-05-03 05:00   [3,152602]
   (IMPORT)       UTLIB .MAC    1983-07-01 06:30   [3,152602]
   (IMPORT)       SCOOPM.MAC    1983-07-01 05:42   [3,152602]
   (IMPORT)       LNSMTC.CCL    1983-07-01 11:42   [3,152602]
   (IMPORT)       CAL   .SAI    1983-08-12 10:42   [3,152602]
   (IMPORT)       CARL  .MAC    1981-09-25 09:57   [3,152602]
   (IMPORT)       CARL  .UNV    1981-09-25 09:58   [3,152602]
   (IMPORT)       FUR   .EXE    1981-09-26 05:57   [3,152602]
   (IMPORT)       UFD   .COM    1981-09-26 12:34   [3,152602]
   (IMPORT)       UFD   .OLD    1981-04-03 09:12   [3,152602]
   (IMPORT)       FUR   .LOW    1981-11-24 18:26   [3,152602]
   (IMPORT)       FUR   .SHR    1981-11-24 18:26   [3,152602]
   (IMPORT)       FUR   .MAC    1981-11-20 09:29   [3,152602]
   (IMPORT)       FUR   .CMD    1981-11-16 21:13   [3,152602]
   (IMPORT)       MKL2A .RND    1982-06-17 09:30   [3,152602]
   (IMPORT)       MKL2A .DOC    1982-06-17 09:00   [3,152602]
   (IMPORT)       MAIL  .FWD    1986-03-23 22:21   [3,152602]
   (IMPORT)       BIGCAL.COM    1981-09-25 17:36   [3,152602]
   (IMPORT)       BIGCAL.DOC    1981-09-25 22:57   [3,152602]
   (IMPORT)       BIGCAL.EXE    1981-09-25 03:24   [3,152602]
   (IMPORT)       BIGCAL.RND    1981-09-25 04:40   [3,152602]
   (IMPORT)       HEADER.FOR    1981-09-25 00:36   [3,152602]
   (IMPORT)       MATCH .FOR    1981-09-25 14:37   [3,152602]
   (IMPORT)       PRINTM.FOR    1981-09-25 12:15   [3,152602]
   (IMPORT)       READ  .ME     1981-09-25 11:24   [3,152602]
   (IMPORT)       BIGCAL.CCF    1981-09-25 03:25   [3,152602]
   (IMPORT)       BIGCAL.CMD    1981-09-25 03:28   [3,152602]
   (IMPORT)       BIGCAL.FOR    1981-09-25 03:38   [3,152602]
   (IMPORT)       BIGCAL.DAT    1981-12-01 20:32   [3,152602]
   (IMPORT)       BIGCAL.INF    1981-08-11 07:30   [3,152602]
   (IMPORT)       BIGCAL.SAV    1970-09-21 12:26   [3,152602]
   (IMPORT)       MAKLIB.HLP    1983-04-08 21:47   [3,152602]
   (IMPORT)       MAKLIB.EXE    1982-06-17 17:16   [3,152602]
   (IMPORT)       MAKLIB.MAN    1982-06-17 16:07   [3,152602]
   (IMPORT)       MAKLIB.RNM    1982-06-17 15:33   [3,152602]
   (IMPORT)       MAKLIB.MAC    1982-06-17 14:49   [3,152602]
   (IMPORT)       MAKLIB.CTL    1982-06-17 12:16   [3,152602]
   (IMPORT)       MAKLIB.DIR    1982-06-17 09:47   [3,152602]
   (IMPORT)       MAKLIB.RNH    1982-06-17 09:40   [3,152602]
   (IMPORT)       MAKLIB.SHR    1971-06-13 16:57   [3,152602]
   (IMPORT)       LINKUP.SYS    1982-04-16 05:28   [3,152602]
   (IMPORT)       LINKUP.MAC    1982-04-16 05:24   [3,152602]
   (IMPORT)       LINKUP.DEC    1979-09-05 10:13   [3,152602]
   (IMPORT)       LINKUP.MEM    1979-07-25 08:25   [3,152602]
   (IMPORT)       GREGOR.FOR    1981-09-25 22:33   [3,152602]
   (IMPORT)       LEAPYR.FOR    1981-09-25 22:33   [3,152602]
   (IMPORT)       SETWEE.FOR    1981-09-25 02:29   [3,152602]
   (IMPORT)       PRUNE .DAT    1982-06-31 02:45   [3,152602]
   (IMPORT)       GCREF .RNH    1983-07-01 17:04   [3,152602]
   (IMPORT)       GCREF .EXE    1983-07-01 16:29   [3,152602]
   (IMPORT)       GCREF .MAC    1983-07-01 11:00   [3,152602]
   (IMPORT)       GCREF .COM    1983-07-01 08:47   [3,152602]
End of saveset, written by TITO v16.  

Start of saveset, written by TITO v16.  Tape #1, 1987-01-03 20:40
System: X32-P035/B.  Tape: 6250 bpi, 9 tracks.
   (XXARC)        PIP   .REL    1982-09-07 02:20   [3,270100]
   (XXARC)        PIP   .EXE    1981-09-29 14:46   [3,270100]
   (XXARC)        PIP   .HLP    1981-09-29 13:47   [3,270100]
   (XXARC)        PIP   .MAC    1981-09-29 09:46   [3,270100]
   (XXARC)        DDT   .DOC    1982-06-26 06:28   [3,270100]
   (XXARC)        DDT   .RND    1982-06-26 06:28   [3,270100]
   (XXARC)        XDDT  .MAC    1982-06-26 06:27   [3,270100]
   (XXARC)        DDT   .UTH    1981-09-29 03:57   [3,270100]
   (XXARC)        DDT   .MAC    1981-09-29 03:23   [3,270100]
   (XXARC)        CREF  .DOC    1981-09-29 14:00   [3,270100]
   (XXARC)        CREF  .EXE    1981-09-29 14:00   [3,270100]
   (XXARC)        CREF  .HLP    1981-09-29 14:00   [3,270100]
   (XXARC)        CREF  .MAC    1981-09-29 09:56   [3,270100]
   (XXARC)        FTEDDT.MAC    1982-06-26 06:25   [3,270100]
   (XXARC)        CHEAD .MAC    1981-09-29 08:43   [3,270100]
   (XXARC)        LINK  .SHR    1981-09-29 02:47   [3,270100]
   (XXARC)        COMP20.SHR    1981-09-28 12:43   [3,270100]
   (XXARC)        COMP20.CTX    1981-09-28 12:43   [3,270100]
   (XXARC)        COMP20.MAC    1981-09-28 12:43   [3,270100]
   (XXARC)        RUNOFF.SHR    1980-10-25 02:42   [3,270100]
   (XXARC)        RUNOFF.LOW    1980-10-25 02:42   [3,270100]
   (XXARC)        PIP33C.DOC    1981-09-29 15:02   [3,270100]
   (XXARC)        FTFDDT.MAC    1982-06-26 06:25   [3,270100]
   (XXARC)        FTFDDT.REL    1981-09-29 23:05   [3,270100]
   (XXARC)        BLDDDT.CTL    1981-09-29 03:32   [3,270100]
   (XXARC)        COMPIL.REL    1982-09-07 02:22   [3,270100]
   (XXARC)        COMPIL.EXE    1981-09-29 16:44   [3,270100]
   (XXARC)        COMPIL.MAC    1981-09-29 16:34   [3,270100]
   (XXARC)        COMPIL.DOC    1981-09-29 11:24   [3,270100]
   (XXARC)        FTUDDT.MAC    1982-06-26 06:26   [3,270100]
   (XXARC)        UFD   .COM    1981-09-26 12:34   [3,270100]
   (XXARC)        COMPIL.OUT    1981-10-08 19:27   [3,270100]
   (XXARC)        COMPIL.DEC    1981-09-30 01:53   [3,270100]
   (XXARC)        COMPIL.D20    1981-09-28 12:44   [3,270100]
   (XXARC)        FILDDT.EXE    1981-09-29 23:08   [3,270100]
   (XXARC)        FILDDT.REL    1981-09-29 23:05   [3,270100]
   (XXARC)        FILDDT.SYM    1981-09-29 03:38   [3,270100]
   (XXARC)        FTVDDT.MAC    1982-06-26 06:26   [3,270100]
   (XXARC)        PRUNE .DAT    1982-06-31 02:45   [3,270100]
End of saveset, written by TITO v16.  

Start of saveset, written by TITO v16.  Tape #1, 1987-01-03 20:57
System: X32-P035/B.  Tape: 6250 bpi, 9 tracks.
   (QALIBSYM)     DUSAGF.100    1975-01-05 00:00   [11447,216605]
   (QALIBSYM)     TELEF .221    1975-01-05 00:00   [11447,216605]
   (QALIBSYM)     DUSAGF.110    1975-01-05 00:00   [11447,216605]
   (QALIBSYM)     DUSAGF.020    1975-01-05 00:00   [11447,216605]
   (QALIBSYM)     TELEF .222    1975-01-05 00:00   [11447,216605]
   (QALIBSYM)     TELECF.223    1985-06-23 22:48   [11447,216605]
   (QALIBSYM)     MAGCOF.506    1975-01-05 00:00   [11447,216605]
   (QALIBSYM)     SCREAF.270    1975-01-05 00:00   [11447,216605]
   (QALIBSYM)     PAKCOF.017    1975-01-05 00:00   [11447,216605]
   (QALIBSYM)     MONGEF.010    1975-01-05 00:00   [11447,216605]
   (QALIBSYM)     SETOPF.020    1975-01-05 00:00   [11447,216605]
   (QALIBSYM)     CSCANF.010    1975-01-05 00:00   [11447,216605]
   (QALIBSYM)     SYSTAF.616    1986-06-16 00:53   [11447,216605]
   (QALIBSYM)     BIONIF.120    1975-01-05 00:00   [11447,216605]
   (QALIBSYM)     SYSTAF.614    1975-01-05 00:00   [11447,216605]
   (QALIBSYM)     SPOOLF.063    1975-01-05 00:00   [11447,216605]
   (QALIBSYM)     SYSTAF.615    1975-01-05 00:00   [11447,216605]
   (QALIBSYM)     SPOOLF.064    1975-01-05 00:00   [11447,216605]
   (QALIBSYM)     UNDELF.001    1975-01-05 00:00   [11447,216605]
   (QALIBSYM)     SYENAF.010    1975-01-05 00:00   [11447,216605]
   (QALIBSYM)     OPERF .150    1975-01-05 00:00   [11447,216605]
   (QALIBSYM)     LOGINF.672    1975-01-05 00:00   [11447,216605]
   (QALIBSYM)     PEAKF .010    1975-01-05 00:00   [11447,216605]
   (QALIBSYM)     SAILIF.020    1975-01-05 00:00   [11447,216605]
   (QALIBSYM)     PEAKF .011    1975-01-05 00:00   [11447,216605]
   (QALIBSYM)     TTRF  .116    1975-01-05 00:00   [11447,216605]
   (QALIBSYM)     PASSWF.040    1975-01-05 00:00   [11447,216605]
   (QALIBSYM)     PEAKF .301    1975-01-05 00:00   [11447,216605]
End of saveset, written by TITO v16.  

Start of saveset, written by TITO v16.  Tape #1, 1987-01-03 21:03
System: X32-P035/B.  Tape: 6250 bpi, 9 tracks.
   (VIVIAN)       DUSAGE.SAV    1983-10-18 18:58   [1,75305]
   (VIVIAN)       DUSAGE.SAI    1983-10-18 18:58   [1,75305]
   (VIVIAN)       DUSAGE.DOC    1983-10-18 18:57   [1,75305]
   (VIVIAN)       DUSAGE.FIL    1983-10-18 18:57   [1,75305]
   (VIVIAN)       DUSAGE.CTL    1983-10-18 18:57   [1,75305]
   (VIVIAN)       A86WDS.MA0    1983-10-11 18:03   [1,75305]
   (VIVIAN)       WID80 .HGH    1983-04-28 17:13   [1,75305]
   (VIVIAN)       WID80 .LOW    1983-04-28 17:13   [1,75305]
   (VIVIAN)       WID132.HGH    1983-04-28 17:12   [1,75305]
   (VIVIAN)       WID132.LOW    1983-04-28 17:12   [1,75305]
   (VIVIAN)       A86WDS.MD0    1983-04-09 17:26   [1,75305]
   (VIVIAN)       RPG   .INI    1983-02-28 23:38   [1,75305]
   (VIVIAN)       SECTIO.SEN    1983-02-22 21:49   [1,75305]
   (VIVIAN)       DUSAGE.LOG    1982-11-01 20:37   [1,75305]
   (VIVIAN)       SETRPG.CTL    1982-10-22 00:37   [1,75305]
   (VIVIAN)       EXAMPL.       1982-10-12 18:15   [1,75305]
   (VIVIAN)       DATE  .DA     1982-10-12 08:08   [1,75305]
   (VIVIAN)       DATE  .REQ    1982-10-12 08:03   [1,75305]
   (VIVIAN)       DUSAGE.001    1975-01-05 00:00   [1,75305]
   (VIVIAN)       DUSAGE.002    1975-01-05 00:00   [1,75305]
   (VIVIAN)       DUSAGE.020    1975-01-05 00:00   [1,75305]
   (VIVIAN)       DUSAGE.DAT    1986-02-03 18:43   [1,75305]
   (VIVIAN)       DUSAGE.RPT    1986-02-03 18:43   [1,75305]
   (VIVIAN)       OCTNUM.DAT    1986-02-17 17:25   [1,75305]
   (VIVIAN)       UUOSYM.DEF    1983-10-18 18:59   [1,75305]
   (VIVIAN)       INIT  .SAI    1983-10-07 00:19   [1,75305]
   (VIVIAN)       VERSE .SAV    1983-10-06 23:33   [1,75305]
   (VIVIAN)       PERM  .MSG    1983-10-06 23:28   [1,75305]
   (VIVIAN)       XCO   .DOC    1983-10-06 17:43   [1,75305]
   (VIVIAN)       XCO   .PUB    1983-03-26 17:00   [1,75305]
   (VIVIAN)       INIT  .SAV    1983-02-30 17:36   [1,75305]
   (VIVIAN)       INIT  .REL    1983-02-28 23:41   [1,75305]
   (VIVIAN)       XCO   .FRM    1983-02-09 21:41   [1,75305]
   (VIVIAN)       TEST1 .SAI    1983-10-18 19:04   [1,75305]
   (VIVIAN)       MFDSCN.SAI    1983-10-18 19:00   [1,75305]
   (VIVIAN)       MFDSCN.REQ    1983-10-18 19:00   [1,75305]
   (VIVIAN)       MFDSCN.DOC    1983-10-18 19:00   [1,75305]
   (VIVIAN)       TEST1 .SAV    1983-10-17 23:43   [1,75305]
   (VIVIAN)       TEST1 .REL    1983-10-17 23:42   [1,75305]
   (VIVIAN)       VIVFEB.RPT    1983-10-16 23:03   [1,75305]
   (VIVIAN)       DOC   .FIL    1983-10-06 19:47   [1,75305]
   (VIVIAN)       HLP   .       1983-10-06 19:42   [1,75305]
   (VIVIAN)       DOC   .       1983-10-06 19:42   [1,75305]
   (VIVIAN)       INDENT.SAV    1983-10-04 17:25   [1,75305]
   (VIVIAN)       INDENT.REL    1983-10-04 17:23   [1,75305]
   (VIVIAN)       INDENT.SAI    1983-10-04 17:23   [1,75305]
   (VIVIAN)       INDENT.BAI    1983-10-04 17:20   [1,75305]
   (VIVIAN)       FILNST.CRF    1983-10-03 00:56   [1,75305]
   (VIVIAN)       FILNST.REL    1983-10-03 00:56   [1,75305]
   (VIVIAN)       FILNST.SAV    1983-10-02 23:44   [1,75305]
   (VIVIAN)       FILNST.SM1    1983-10-02 23:44   [1,75305]
   (VIVIAN)       FILNST.SAI    1982-11-01 17:46   [1,75305]
   (VIVIAN)       INDENT.SM1    1982-06-18 23:06   [1,75305]
   (VIVIAN)       DECNUM.DAT    1983-10-25 23:52   [1,75305]
   (VIVIAN)       CVPPN .SAI    1983-10-18 19:00   [1,75305]
   (VIVIAN)       CVPPN .REQ    1983-10-18 19:00   [1,75305]
   (VIVIAN)       DUL   .SAI    1983-10-18 19:00   [1,75305]
   (VIVIAN)       DUL   .REQ    1983-10-18 19:00   [1,75305]
   (VIVIAN)       TEST2 .SAV    1983-10-18 01:14   [1,75305]
   (VIVIAN)       TEST2 .REL    1983-10-18 01:13   [1,75305]
   (VIVIAN)       TEST2 .SAI    1983-10-18 01:13   [1,75305]
   (VIVIAN)       TRYIT .TXT    1983-10-04 17:26   [1,75305]
   (VIVIAN)       TRYIT .LST    1983-10-03 20:21   [1,75305]
   (VIVIAN)       TRYIT .BAI    1983-10-03 18:48   [1,75305]
   (VIVIAN)       TRYIT .SAV    1983-10-03 18:47   [1,75305]
   (VIVIAN)       TRYIT .REL    1983-10-03 18:47   [1,75305]
   (VIVIAN)       TRYIT .SM1    1983-10-03 18:47   [1,75305]
   (VIVIAN)       TRYIT .CRF    1983-10-03 18:18   [1,75305]
   (VIVIAN)       TRYIT .SAI    1983-10-03 18:03   [1,75305]
   (VIVIAN)       PEAK  .INI    1983-03-19 18:20   [1,75305]
   (VIVIAN)       NAME  .       1986-02-03 18:38   [1,75305]
   (VIVIAN)       HIATT .FIL    1983-11-03 19:28   [1,75305]
   (VIVIAN)       CVT   .SAV    1983-10-27 01:16   [1,75305]
   (VIVIAN)       CVT   .REL    1983-10-27 01:15   [1,75305]
   (VIVIAN)       CVT   .SAI    1983-10-27 01:15   [1,75305]
   (VIVIAN)       SAIL  .DEF    1983-10-26 20:49   [1,75305]
   (VIVIAN)       LIC   .REQ    1983-10-18 19:00   [1,75305]
   (VIVIAN)       LIC   .SAI    1983-10-18 19:00   [1,75305]
   (VIVIAN)       LIC   .REL    1983-10-18 19:00   [1,75305]
   (VIVIAN)       TEST3 .SAV    1983-10-18 17:37   [1,75305]
   (VIVIAN)       TEST3 .REL    1983-10-18 17:37   [1,75305]
   (VIVIAN)       TEST3 .SAI    1983-10-18 17:36   [1,75305]
   (VIVIAN)       LICTES.SAV    1983-10-13 21:54   [1,75305]
   (VIVIAN)       LICTES.REL    1983-10-13 21:53   [1,75305]
   (VIVIAN)       LICTES.SAI    1983-10-13 21:53   [1,75305]
   (VIVIAN)       TURNUP.MSG    1983-10-07 00:14   [1,75305]
   (VIVIAN)       HIATT .       1983-10-02 22:18   [1,75305]
   (VIVIAN)       RECUR .SAV    1983-02-30 20:03   [1,75305]
   (VIVIAN)       HELP  .REL    1983-02-30 17:46   [1,75305]
   (VIVIAN)       CODE  .REL    1983-02-30 17:42   [1,75305]
   (VIVIAN)       RECUR .REL    1982-12-02 01:03   [1,75305]
   (VIVIAN)       RECUR .SAI    1982-12-02 01:03   [1,75305]
   (VIVIAN)       MAIL  .FWD    1986-03-21 23:44   [1,75305]
   (VIVIAN)       MAGNUM.DIR    1983-11-15 18:04   [1,75305]
   (VIVIAN)       DULWLD.SAI    1983-10-18 19:00   [1,75305]
   (VIVIAN)       DULWLD.REQ    1983-10-18 19:00   [1,75305]
   (VIVIAN)       TEST4 .SAV    1983-10-18 18:07   [1,75305]
   (VIVIAN)       TEST4 .REL    1983-10-18 18:07   [1,75305]
   (VIVIAN)       TEST4 .SAI    1983-10-18 18:07   [1,75305]
   (VIVIAN)       MDOC  .       1983-10-06 19:42   [1,75305]
   (VIVIAN)       DUMPFI.HLP    1983-06-02 16:02   [1,75305]
   (VIVIAN)       MAIL  .BOX    1983-05-19 14:13   [1,75305]
   (VIVIAN)       NEWFIL.       1983-02-28 19:49   [1,75305]
   (VIVIAN)       VIVIAN.TIM    1983-10-26 22:11   [1,75305]
   (VIVIAN)       RECURS.BAI    1983-10-25 22:45   [1,75305]
   (VIVIAN)       RECURS.SAV    1983-10-25 22:45   [1,75305]
   (VIVIAN)       RECURS.REL    1983-10-25 22:44   [1,75305]
   (VIVIAN)       RECURS.SM1    1983-10-25 22:44   [1,75305]
   (VIVIAN)       RECURS.SAI    1983-10-25 22:44   [1,75305]
   (VIVIAN)       XTEND .DCL    1983-10-18 18:59   [1,75305]
   (VIVIAN)       TEST  .SAI    1983-10-18 00:28   [1,75305]
   (VIVIAN)       TEST  .SAV    1983-10-18 00:20   [1,75305]
   (VIVIAN)       TEST  .REL    1983-10-18 00:20   [1,75305]
   (VIVIAN)       ERROR .LST    1983-10-05 23:40   [1,75305]
   (VIVIAN)       FILSCN.LST    1983-10-05 23:40   [1,75305]
   (VIVIAN)       [MAIL].       1983-08-03 16:59   [1,75305]
   (VIVIAN)       FIL4  .       1983-05-24 15:52   [1,75305]
   (VIVIAN)       CRASHN.       1983-01-11 15:56   [1,75305]
   (VIVIAN)       DIRIT .INI    1982-08-16 16:57   [1,75305]
End of saveset, written by TITO v16.  

Start of saveset, written by TITO v16.  Tape #1, 1987-01-03 21:04
System: X32-P035/B.  Tape: 6250 bpi, 9 tracks.
   (QALIBSYM)     DUSAGF.100    1975-01-05 00:00   [11447,216605]
   (QALIBSYM)     TELEF .221    1975-01-05 00:00   [11447,216605]
   (QALIBSYM)     DUSAGF.110    1975-01-05 00:00   [11447,216605]
   (QALIBSYM)     DUSAGF.020    1975-01-05 00:00   [11447,216605]
   (QALIBSYM)     TELEF .222    1975-01-05 00:00   [11447,216605]
   (QALIBSYM)     TELECF.223    1985-06-23 22:48   [11447,216605]
   (QALIBSYM)     MAGCOF.506    1975-01-05 00:00   [11447,216605]
   (QALIBSYM)     SCREAF.270    1975-01-05 00:00   [11447,216605]
   (QALIBSYM)     PAKCOF.017    1975-01-05 00:00   [11447,216605]
   (QALIBSYM)     MONGEF.010    1975-01-05 00:00   [11447,216605]
   (QALIBSYM)     SETOPF.020    1975-01-05 00:00   [11447,216605]
   (QALIBSYM)     CSCANF.010    1975-01-05 00:00   [11447,216605]
   (QALIBSYM)     SYSTAF.616    1986-06-16 00:53   [11447,216605]
   (QALIBSYM)     BIONIF.120    1975-01-05 00:00   [11447,216605]
   (QALIBSYM)     SYSTAF.614    1975-01-05 00:00   [11447,216605]
   (QALIBSYM)     SPOOLF.063    1975-01-05 00:00   [11447,216605]
   (QALIBSYM)     SYSTAF.615    1975-01-05 00:00   [11447,216605]
   (QALIBSYM)     SPOOLF.064    1975-01-05 00:00   [11447,216605]
   (QALIBSYM)     UNDELF.001    1975-01-05 00:00   [11447,216605]
   (QALIBSYM)     SYENAF.010    1975-01-05 00:00   [11447,216605]
   (QALIBSYM)     OPERF .150    1975-01-05 00:00   [11447,216605]
   (QALIBSYM)     LOGINF.672    1975-01-05 00:00   [11447,216605]
   (QALIBSYM)     PEAKF .010    1975-01-05 00:00   [11447,216605]
   (QALIBSYM)     SAILIF.020    1975-01-05 00:00   [11447,216605]
   (QALIBSYM)     PEAKF .011    1975-01-05 00:00   [11447,216605]
   (QALIBSYM)     TTRF  .116    1975-01-05 00:00   [11447,216605]
   (QALIBSYM)     PASSWF.040    1975-01-05 00:00   [11447,216605]
   (QALIBSYM)     PEAKF .301    1975-01-05 00:00   [11447,216605]
