da39a3ee5e6b4b0d3255bfef95601890afd80709  169241.tape
da39a3ee5e6b4b0d3255bfef95601890afd80709  169242.tape
05fe405753166f125559e7c9ac558654f107c7e9  169243.tape
b140934ed2d10c6032e7bb6b79addea7c418e26d  169245.tape
da39a3ee5e6b4b0d3255bfef95601890afd80709  169246.tape
b140934ed2d10c6032e7bb6b79addea7c418e26d  169247.tape
b140934ed2d10c6032e7bb6b79addea7c418e26d  169248.tape
1230fb20086990a1ff777fce32591f2900425694  169249.tape
5f85c5bda6e35bae56ffb1b0b47fa7b5a5bee13b  169250.tape
670f8609f2a2eeb828ac9e78549ff6d624a0c58e  169251.tape
81e6f4dfed0b766b2153328fcae74334ad5aef7e  169252.tape
81e6f4dfed0b766b2153328fcae74334ad5aef7e  169252_1.tape
1923cbba41f637927d9177b39abd9d34180ee59e  169253.tape
a32d0aea8a4e077042b4e0c4ebe80c5fbaac2543  169254.tape
a9fa15cd2ab38a8df94c3e20e1a0096ea02a4ba1  169255.tape
a17ec7c0248403168035ad442f1c5d089658c048  169256.tape
9069ca78e7450a285173431b3e52c5c25299e473  169257.tape
07ef7d1737e90e5d2e96389384c0aa5b606b5d68  169257_1.tape
7a03e69cc7af990ebeb476fe18d17745618fa8bb  169259.tape
a9fa15cd2ab38a8df94c3e20e1a0096ea02a4ba1  169260.tape
a17ec7c0248403168035ad442f1c5d089658c048  169261.tape
81e6f4dfed0b766b2153328fcae74334ad5aef7e  169262.tape
a32d0aea8a4e077042b4e0c4ebe80c5fbaac2543  169263.tape
1923cbba41f637927d9177b39abd9d34180ee59e  169264.tape
2854876f402d0e26681d92a2c8e93bff15b5fe5c  169265.tape
ebc63dd59dedfe85c4253ec4c8909a8b024a9761  169266.tape
0e3e18a9740c23be904a55ca007e68d8c44751bd  169267.tape
43c2ff03ecfbf8ff0ee88c8894a51cb5cac35dd4  169268.tape
387f5ece4933fe180a848937231f90a5e7234a8a  169269.tape
387f5ece4933fe180a848937231f90a5e7234a8a  169269_1.tape
8c11f10ba6e831efc4d991ca00136dd4f6fe0a75  169270.tape
07647cf9a846ee93ad5673e5f1f865466bea8c98  169271.tape
55163e411aac7b85360557806ec86cf6f9ae62f0  169271_1.tape
72c47ea07c927500e26a0a5a0388ec2da8fa2578  169272.tape
fdf2df2867a379f84240b00437d057c5e48a1128  169273.tape
5853d3eb5101c60eb0930632a33cba38cdfbc75e  169274.tape
acf215c5c3469c5b6cad42f2fb2d152420f53e35  169275.tape
7ea797496633562c9bddbbe0f4cb906cd59e8849  169276.tape
7ea797496633562c9bddbbe0f4cb906cd59e8849  169276_1.tape
7a0130557d31f529f2b3e8d480d082c61b88d879  169277.tape
8271f067d64a125833bec0b171ea86d7902ccf06  169278.tape
a96e9bd961b1caefd489f22b3a0c48ce0d3fc3a7  169279.tape
59fa4e6bea0598fdd572ad26ef39c55dee4bdbda  169280.tape
59fa4e6bea0598fdd572ad26ef39c55dee4bdbda  169280_1.tape
979b59438b88cfe1c77f187272f95b5644346760  169281.tape
ffaba3d6958337e14a77836fe2e2696c1b426f40  169281_1.tape
549f96769d54baaade8edbdae1e098c96da84e39  169281_2.tape
05fe405753166f125559e7c9ac558654f107c7e9  169282.tape
ee0ed9dd6f978c5cb6578381f48e8e9fa3749626  169283.tape
ee0ed9dd6f978c5cb6578381f48e8e9fa3749626  169283_1.tape
d6a506e7c773e8d486aa1d5c653c96bf45c39332  169284.tape
d6a506e7c773e8d486aa1d5c653c96bf45c39332  169284_1.tape
1cafea2f31c5391c8fe8c1a7215aed632885e89c  169285.tape
b140934ed2d10c6032e7bb6b79addea7c418e26d  169286.tape
b140934ed2d10c6032e7bb6b79addea7c418e26d  169286_1.tape
05fe405753166f125559e7c9ac558654f107c7e9  169287.tape
da39a3ee5e6b4b0d3255bfef95601890afd80709  169288.tape
9069ca78e7450a285173431b3e52c5c25299e473  169289.tape
07c8da08e4bcbc28d7e31f4380fa12ed9cb03109  169290.tape
da39a3ee5e6b4b0d3255bfef95601890afd80709  169291.tape
05fe405753166f125559e7c9ac558654f107c7e9  169292.tape
05fe405753166f125559e7c9ac558654f107c7e9  169293.tape
da39a3ee5e6b4b0d3255bfef95601890afd80709  169294.tape
b140934ed2d10c6032e7bb6b79addea7c418e26d  301692.tape
